(kicad_sch (version 20230121) (generator eeschema)

  (uuid bedf51c7-2052-4304-8e53-c9c0ecbec697)

  (paper "A4")

  (lib_symbols
    (symbol "Connector:Conn_01x03_Pin" (pin_names (offset 1.016) hide) (in_bom yes) (on_board yes)
      (property "Reference" "J" (at 0 5.08 0)
        (effects (font (size 1.27 1.27)))
      )
      (property "Value" "Conn_01x03_Pin" (at 0 -5.08 0)
        (effects (font (size 1.27 1.27)))
      )
      (property "Footprint" "" (at 0 0 0)
        (effects (font (size 1.27 1.27)) hide)
      )
      (property "Datasheet" "~" (at 0 0 0)
        (effects (font (size 1.27 1.27)) hide)
      )
      (property "ki_locked" "" (at 0 0 0)
        (effects (font (size 1.27 1.27)))
      )
      (property "ki_keywords" "connector" (at 0 0 0)
        (effects (font (size 1.27 1.27)) hide)
      )
      (property "ki_description" "Generic connector, single row, 01x03, script generated" (at 0 0 0)
        (effects (font (size 1.27 1.27)) hide)
      )
      (property "ki_fp_filters" "Connector*:*_1x??_*" (at 0 0 0)
        (effects (font (size 1.27 1.27)) hide)
      )
      (symbol "Conn_01x03_Pin_1_1"
        (polyline
          (pts
            (xy 1.27 -2.54)
            (xy 0.8636 -2.54)
          )
          (stroke (width 0.1524) (type default))
          (fill (type none))
        )
        (polyline
          (pts
            (xy 1.27 0)
            (xy 0.8636 0)
          )
          (stroke (width 0.1524) (type default))
          (fill (type none))
        )
        (polyline
          (pts
            (xy 1.27 2.54)
            (xy 0.8636 2.54)
          )
          (stroke (width 0.1524) (type default))
          (fill (type none))
        )
        (rectangle (start 0.8636 -2.413) (end 0 -2.667)
          (stroke (width 0.1524) (type default))
          (fill (type outline))
        )
        (rectangle (start 0.8636 0.127) (end 0 -0.127)
          (stroke (width 0.1524) (type default))
          (fill (type outline))
        )
        (rectangle (start 0.8636 2.667) (end 0 2.413)
          (stroke (width 0.1524) (type default))
          (fill (type outline))
        )
        (pin passive line (at 5.08 2.54 180) (length 3.81)
          (name "Pin_1" (effects (font (size 1.27 1.27))))
          (number "1" (effects (font (size 1.27 1.27))))
        )
        (pin passive line (at 5.08 0 180) (length 3.81)
          (name "Pin_2" (effects (font (size 1.27 1.27))))
          (number "2" (effects (font (size 1.27 1.27))))
        )
        (pin passive line (at 5.08 -2.54 180) (length 3.81)
          (name "Pin_3" (effects (font (size 1.27 1.27))))
          (number "3" (effects (font (size 1.27 1.27))))
        )
      )
    )
    (symbol "Connector:USB_B_Micro" (pin_names (offset 1.016)) (in_bom yes) (on_board yes)
      (property "Reference" "J" (at -5.08 11.43 0)
        (effects (font (size 1.27 1.27)) (justify left))
      )
      (property "Value" "USB_B_Micro" (at -5.08 8.89 0)
        (effects (font (size 1.27 1.27)) (justify left))
      )
      (property "Footprint" "" (at 3.81 -1.27 0)
        (effects (font (size 1.27 1.27)) hide)
      )
      (property "Datasheet" "~" (at 3.81 -1.27 0)
        (effects (font (size 1.27 1.27)) hide)
      )
      (property "ki_keywords" "connector USB micro" (at 0 0 0)
        (effects (font (size 1.27 1.27)) hide)
      )
      (property "ki_description" "USB Micro Type B connector" (at 0 0 0)
        (effects (font (size 1.27 1.27)) hide)
      )
      (property "ki_fp_filters" "USB*" (at 0 0 0)
        (effects (font (size 1.27 1.27)) hide)
      )
      (symbol "USB_B_Micro_0_1"
        (rectangle (start -5.08 -7.62) (end 5.08 7.62)
          (stroke (width 0.254) (type default))
          (fill (type background))
        )
        (circle (center -3.81 2.159) (radius 0.635)
          (stroke (width 0.254) (type default))
          (fill (type outline))
        )
        (circle (center -0.635 3.429) (radius 0.381)
          (stroke (width 0.254) (type default))
          (fill (type outline))
        )
        (rectangle (start -0.127 -7.62) (end 0.127 -6.858)
          (stroke (width 0) (type default))
          (fill (type none))
        )
        (polyline
          (pts
            (xy -1.905 2.159)
            (xy 0.635 2.159)
          )
          (stroke (width 0.254) (type default))
          (fill (type none))
        )
        (polyline
          (pts
            (xy -3.175 2.159)
            (xy -2.54 2.159)
            (xy -1.27 3.429)
            (xy -0.635 3.429)
          )
          (stroke (width 0.254) (type default))
          (fill (type none))
        )
        (polyline
          (pts
            (xy -2.54 2.159)
            (xy -1.905 2.159)
            (xy -1.27 0.889)
            (xy 0 0.889)
          )
          (stroke (width 0.254) (type default))
          (fill (type none))
        )
        (polyline
          (pts
            (xy 0.635 2.794)
            (xy 0.635 1.524)
            (xy 1.905 2.159)
            (xy 0.635 2.794)
          )
          (stroke (width 0.254) (type default))
          (fill (type outline))
        )
        (polyline
          (pts
            (xy -4.318 5.588)
            (xy -1.778 5.588)
            (xy -2.032 4.826)
            (xy -4.064 4.826)
            (xy -4.318 5.588)
          )
          (stroke (width 0) (type default))
          (fill (type outline))
        )
        (polyline
          (pts
            (xy -4.699 5.842)
            (xy -4.699 5.588)
            (xy -4.445 4.826)
            (xy -4.445 4.572)
            (xy -1.651 4.572)
            (xy -1.651 4.826)
            (xy -1.397 5.588)
            (xy -1.397 5.842)
            (xy -4.699 5.842)
          )
          (stroke (width 0) (type default))
          (fill (type none))
        )
        (rectangle (start 0.254 1.27) (end -0.508 0.508)
          (stroke (width 0.254) (type default))
          (fill (type outline))
        )
        (rectangle (start 5.08 -5.207) (end 4.318 -4.953)
          (stroke (width 0) (type default))
          (fill (type none))
        )
        (rectangle (start 5.08 -2.667) (end 4.318 -2.413)
          (stroke (width 0) (type default))
          (fill (type none))
        )
        (rectangle (start 5.08 -0.127) (end 4.318 0.127)
          (stroke (width 0) (type default))
          (fill (type none))
        )
        (rectangle (start 5.08 4.953) (end 4.318 5.207)
          (stroke (width 0) (type default))
          (fill (type none))
        )
      )
      (symbol "USB_B_Micro_1_1"
        (pin power_out line (at 7.62 5.08 180) (length 2.54)
          (name "VBUS" (effects (font (size 1.27 1.27))))
          (number "1" (effects (font (size 1.27 1.27))))
        )
        (pin bidirectional line (at 7.62 -2.54 180) (length 2.54)
          (name "D-" (effects (font (size 1.27 1.27))))
          (number "2" (effects (font (size 1.27 1.27))))
        )
        (pin bidirectional line (at 7.62 0 180) (length 2.54)
          (name "D+" (effects (font (size 1.27 1.27))))
          (number "3" (effects (font (size 1.27 1.27))))
        )
        (pin passive line (at 7.62 -5.08 180) (length 2.54)
          (name "ID" (effects (font (size 1.27 1.27))))
          (number "4" (effects (font (size 1.27 1.27))))
        )
        (pin power_out line (at 0 -10.16 90) (length 2.54)
          (name "GND" (effects (font (size 1.27 1.27))))
          (number "5" (effects (font (size 1.27 1.27))))
        )
        (pin passive line (at -2.54 -10.16 90) (length 2.54)
          (name "Shield" (effects (font (size 1.27 1.27))))
          (number "6" (effects (font (size 1.27 1.27))))
        )
      )
    )
    (symbol "Device:C_Small" (pin_numbers hide) (pin_names (offset 0.254) hide) (in_bom yes) (on_board yes)
      (property "Reference" "C" (at 0.254 1.778 0)
        (effects (font (size 1.27 1.27)) (justify left))
      )
      (property "Value" "C_Small" (at 0.254 -2.032 0)
        (effects (font (size 1.27 1.27)) (justify left))
      )
      (property "Footprint" "" (at 0 0 0)
        (effects (font (size 1.27 1.27)) hide)
      )
      (property "Datasheet" "~" (at 0 0 0)
        (effects (font (size 1.27 1.27)) hide)
      )
      (property "ki_keywords" "capacitor cap" (at 0 0 0)
        (effects (font (size 1.27 1.27)) hide)
      )
      (property "ki_description" "Unpolarized capacitor, small symbol" (at 0 0 0)
        (effects (font (size 1.27 1.27)) hide)
      )
      (property "ki_fp_filters" "C_*" (at 0 0 0)
        (effects (font (size 1.27 1.27)) hide)
      )
      (symbol "C_Small_0_1"
        (polyline
          (pts
            (xy -1.524 -0.508)
            (xy 1.524 -0.508)
          )
          (stroke (width 0.3302) (type default))
          (fill (type none))
        )
        (polyline
          (pts
            (xy -1.524 0.508)
            (xy 1.524 0.508)
          )
          (stroke (width 0.3048) (type default))
          (fill (type none))
        )
      )
      (symbol "C_Small_1_1"
        (pin passive line (at 0 2.54 270) (length 2.032)
          (name "~" (effects (font (size 1.27 1.27))))
          (number "1" (effects (font (size 1.27 1.27))))
        )
        (pin passive line (at 0 -2.54 90) (length 2.032)
          (name "~" (effects (font (size 1.27 1.27))))
          (number "2" (effects (font (size 1.27 1.27))))
        )
      )
    )
    (symbol "Device:Crystal" (pin_numbers hide) (pin_names (offset 1.016) hide) (in_bom yes) (on_board yes)
      (property "Reference" "Y" (at 0 3.81 0)
        (effects (font (size 1.27 1.27)))
      )
      (property "Value" "Crystal" (at 0 -3.81 0)
        (effects (font (size 1.27 1.27)))
      )
      (property "Footprint" "" (at 0 0 0)
        (effects (font (size 1.27 1.27)) hide)
      )
      (property "Datasheet" "~" (at 0 0 0)
        (effects (font (size 1.27 1.27)) hide)
      )
      (property "ki_keywords" "quartz ceramic resonator oscillator" (at 0 0 0)
        (effects (font (size 1.27 1.27)) hide)
      )
      (property "ki_description" "Two pin crystal" (at 0 0 0)
        (effects (font (size 1.27 1.27)) hide)
      )
      (property "ki_fp_filters" "Crystal*" (at 0 0 0)
        (effects (font (size 1.27 1.27)) hide)
      )
      (symbol "Crystal_0_1"
        (rectangle (start -1.143 2.54) (end 1.143 -2.54)
          (stroke (width 0.3048) (type default))
          (fill (type none))
        )
        (polyline
          (pts
            (xy -2.54 0)
            (xy -1.905 0)
          )
          (stroke (width 0) (type default))
          (fill (type none))
        )
        (polyline
          (pts
            (xy -1.905 -1.27)
            (xy -1.905 1.27)
          )
          (stroke (width 0.508) (type default))
          (fill (type none))
        )
        (polyline
          (pts
            (xy 1.905 -1.27)
            (xy 1.905 1.27)
          )
          (stroke (width 0.508) (type default))
          (fill (type none))
        )
        (polyline
          (pts
            (xy 2.54 0)
            (xy 1.905 0)
          )
          (stroke (width 0) (type default))
          (fill (type none))
        )
      )
      (symbol "Crystal_1_1"
        (pin passive line (at -3.81 0 0) (length 1.27)
          (name "1" (effects (font (size 1.27 1.27))))
          (number "1" (effects (font (size 1.27 1.27))))
        )
        (pin passive line (at 3.81 0 180) (length 1.27)
          (name "2" (effects (font (size 1.27 1.27))))
          (number "2" (effects (font (size 1.27 1.27))))
        )
      )
    )
    (symbol "Device:D" (pin_numbers hide) (pin_names (offset 1.016) hide) (in_bom yes) (on_board yes)
      (property "Reference" "D" (at 0 2.54 0)
        (effects (font (size 1.27 1.27)))
      )
      (property "Value" "D" (at 0 -2.54 0)
        (effects (font (size 1.27 1.27)))
      )
      (property "Footprint" "" (at 0 0 0)
        (effects (font (size 1.27 1.27)) hide)
      )
      (property "Datasheet" "~" (at 0 0 0)
        (effects (font (size 1.27 1.27)) hide)
      )
      (property "Sim.Device" "D" (at 0 0 0)
        (effects (font (size 1.27 1.27)) hide)
      )
      (property "Sim.Pins" "1=K 2=A" (at 0 0 0)
        (effects (font (size 1.27 1.27)) hide)
      )
      (property "ki_keywords" "diode" (at 0 0 0)
        (effects (font (size 1.27 1.27)) hide)
      )
      (property "ki_description" "Diode" (at 0 0 0)
        (effects (font (size 1.27 1.27)) hide)
      )
      (property "ki_fp_filters" "TO-???* *_Diode_* *SingleDiode* D_*" (at 0 0 0)
        (effects (font (size 1.27 1.27)) hide)
      )
      (symbol "D_0_1"
        (polyline
          (pts
            (xy -1.27 1.27)
            (xy -1.27 -1.27)
          )
          (stroke (width 0.254) (type default))
          (fill (type none))
        )
        (polyline
          (pts
            (xy 1.27 0)
            (xy -1.27 0)
          )
          (stroke (width 0) (type default))
          (fill (type none))
        )
        (polyline
          (pts
            (xy 1.27 1.27)
            (xy 1.27 -1.27)
            (xy -1.27 0)
            (xy 1.27 1.27)
          )
          (stroke (width 0.254) (type default))
          (fill (type none))
        )
      )
      (symbol "D_1_1"
        (pin passive line (at -3.81 0 0) (length 2.54)
          (name "K" (effects (font (size 1.27 1.27))))
          (number "1" (effects (font (size 1.27 1.27))))
        )
        (pin passive line (at 3.81 0 180) (length 2.54)
          (name "A" (effects (font (size 1.27 1.27))))
          (number "2" (effects (font (size 1.27 1.27))))
        )
      )
    )
    (symbol "Device:LED" (pin_numbers hide) (pin_names (offset 1.016) hide) (in_bom yes) (on_board yes)
      (property "Reference" "D" (at 0 2.54 0)
        (effects (font (size 1.27 1.27)))
      )
      (property "Value" "LED" (at 0 -2.54 0)
        (effects (font (size 1.27 1.27)))
      )
      (property "Footprint" "" (at 0 0 0)
        (effects (font (size 1.27 1.27)) hide)
      )
      (property "Datasheet" "~" (at 0 0 0)
        (effects (font (size 1.27 1.27)) hide)
      )
      (property "ki_keywords" "LED diode" (at 0 0 0)
        (effects (font (size 1.27 1.27)) hide)
      )
      (property "ki_description" "Light emitting diode" (at 0 0 0)
        (effects (font (size 1.27 1.27)) hide)
      )
      (property "ki_fp_filters" "LED* LED_SMD:* LED_THT:*" (at 0 0 0)
        (effects (font (size 1.27 1.27)) hide)
      )
      (symbol "LED_0_1"
        (polyline
          (pts
            (xy -1.27 -1.27)
            (xy -1.27 1.27)
          )
          (stroke (width 0.254) (type default))
          (fill (type none))
        )
        (polyline
          (pts
            (xy -1.27 0)
            (xy 1.27 0)
          )
          (stroke (width 0) (type default))
          (fill (type none))
        )
        (polyline
          (pts
            (xy 1.27 -1.27)
            (xy 1.27 1.27)
            (xy -1.27 0)
            (xy 1.27 -1.27)
          )
          (stroke (width 0.254) (type default))
          (fill (type none))
        )
        (polyline
          (pts
            (xy -3.048 -0.762)
            (xy -4.572 -2.286)
            (xy -3.81 -2.286)
            (xy -4.572 -2.286)
            (xy -4.572 -1.524)
          )
          (stroke (width 0) (type default))
          (fill (type none))
        )
        (polyline
          (pts
            (xy -1.778 -0.762)
            (xy -3.302 -2.286)
            (xy -2.54 -2.286)
            (xy -3.302 -2.286)
            (xy -3.302 -1.524)
          )
          (stroke (width 0) (type default))
          (fill (type none))
        )
      )
      (symbol "LED_1_1"
        (pin passive line (at -3.81 0 0) (length 2.54)
          (name "K" (effects (font (size 1.27 1.27))))
          (number "1" (effects (font (size 1.27 1.27))))
        )
        (pin passive line (at 3.81 0 180) (length 2.54)
          (name "A" (effects (font (size 1.27 1.27))))
          (number "2" (effects (font (size 1.27 1.27))))
        )
      )
    )
    (symbol "Device:R_Small" (pin_numbers hide) (pin_names (offset 0.254) hide) (in_bom yes) (on_board yes)
      (property "Reference" "R" (at 0.762 0.508 0)
        (effects (font (size 1.27 1.27)) (justify left))
      )
      (property "Value" "R_Small" (at 0.762 -1.016 0)
        (effects (font (size 1.27 1.27)) (justify left))
      )
      (property "Footprint" "" (at 0 0 0)
        (effects (font (size 1.27 1.27)) hide)
      )
      (property "Datasheet" "~" (at 0 0 0)
        (effects (font (size 1.27 1.27)) hide)
      )
      (property "ki_keywords" "R resistor" (at 0 0 0)
        (effects (font (size 1.27 1.27)) hide)
      )
      (property "ki_description" "Resistor, small symbol" (at 0 0 0)
        (effects (font (size 1.27 1.27)) hide)
      )
      (property "ki_fp_filters" "R_*" (at 0 0 0)
        (effects (font (size 1.27 1.27)) hide)
      )
      (symbol "R_Small_0_1"
        (rectangle (start -0.762 1.778) (end 0.762 -1.778)
          (stroke (width 0.2032) (type default))
          (fill (type none))
        )
      )
      (symbol "R_Small_1_1"
        (pin passive line (at 0 2.54 270) (length 0.762)
          (name "~" (effects (font (size 1.27 1.27))))
          (number "1" (effects (font (size 1.27 1.27))))
        )
        (pin passive line (at 0 -2.54 90) (length 0.762)
          (name "~" (effects (font (size 1.27 1.27))))
          (number "2" (effects (font (size 1.27 1.27))))
        )
      )
    )
    (symbol "Interface_USB:CH340G" (in_bom yes) (on_board yes)
      (property "Reference" "U" (at -5.08 13.97 0)
        (effects (font (size 1.27 1.27)) (justify right))
      )
      (property "Value" "CH340G" (at 1.27 13.97 0)
        (effects (font (size 1.27 1.27)) (justify left))
      )
      (property "Footprint" "Package_SO:SOIC-16_3.9x9.9mm_P1.27mm" (at 1.27 -13.97 0)
        (effects (font (size 1.27 1.27)) (justify left) hide)
      )
      (property "Datasheet" "http://www.datasheet5.com/pdf-local-2195953" (at -8.89 20.32 0)
        (effects (font (size 1.27 1.27)) hide)
      )
      (property "ki_keywords" "USB UART Serial Converter Interface" (at 0 0 0)
        (effects (font (size 1.27 1.27)) hide)
      )
      (property "ki_description" "USB serial converter, UART, SOIC-16" (at 0 0 0)
        (effects (font (size 1.27 1.27)) hide)
      )
      (property "ki_fp_filters" "SOIC*3.9x9.9mm*P1.27mm*" (at 0 0 0)
        (effects (font (size 1.27 1.27)) hide)
      )
      (symbol "CH340G_0_1"
        (rectangle (start -7.62 12.7) (end 7.62 -12.7)
          (stroke (width 0.254) (type default))
          (fill (type background))
        )
      )
      (symbol "CH340G_1_1"
        (pin power_in line (at 0 -15.24 90) (length 2.54)
          (name "GND" (effects (font (size 1.27 1.27))))
          (number "1" (effects (font (size 1.27 1.27))))
        )
        (pin input line (at 10.16 0 180) (length 2.54)
          (name "~{DSR}" (effects (font (size 1.27 1.27))))
          (number "10" (effects (font (size 1.27 1.27))))
        )
        (pin input line (at 10.16 -2.54 180) (length 2.54)
          (name "~{RI}" (effects (font (size 1.27 1.27))))
          (number "11" (effects (font (size 1.27 1.27))))
        )
        (pin input line (at 10.16 -5.08 180) (length 2.54)
          (name "~{DCD}" (effects (font (size 1.27 1.27))))
          (number "12" (effects (font (size 1.27 1.27))))
        )
        (pin output line (at 10.16 -7.62 180) (length 2.54)
          (name "~{DTR}" (effects (font (size 1.27 1.27))))
          (number "13" (effects (font (size 1.27 1.27))))
        )
        (pin output line (at 10.16 -10.16 180) (length 2.54)
          (name "~{RTS}" (effects (font (size 1.27 1.27))))
          (number "14" (effects (font (size 1.27 1.27))))
        )
        (pin input line (at -10.16 7.62 0) (length 2.54)
          (name "R232" (effects (font (size 1.27 1.27))))
          (number "15" (effects (font (size 1.27 1.27))))
        )
        (pin power_in line (at 0 15.24 270) (length 2.54)
          (name "VCC" (effects (font (size 1.27 1.27))))
          (number "16" (effects (font (size 1.27 1.27))))
        )
        (pin output line (at 10.16 10.16 180) (length 2.54)
          (name "TXD" (effects (font (size 1.27 1.27))))
          (number "2" (effects (font (size 1.27 1.27))))
        )
        (pin input line (at 10.16 7.62 180) (length 2.54)
          (name "RXD" (effects (font (size 1.27 1.27))))
          (number "3" (effects (font (size 1.27 1.27))))
        )
        (pin passive line (at -2.54 15.24 270) (length 2.54)
          (name "V3" (effects (font (size 1.27 1.27))))
          (number "4" (effects (font (size 1.27 1.27))))
        )
        (pin bidirectional line (at -10.16 2.54 0) (length 2.54)
          (name "UD+" (effects (font (size 1.27 1.27))))
          (number "5" (effects (font (size 1.27 1.27))))
        )
        (pin bidirectional line (at -10.16 0 0) (length 2.54)
          (name "UD-" (effects (font (size 1.27 1.27))))
          (number "6" (effects (font (size 1.27 1.27))))
        )
        (pin input line (at -10.16 -5.08 0) (length 2.54)
          (name "XI" (effects (font (size 1.27 1.27))))
          (number "7" (effects (font (size 1.27 1.27))))
        )
        (pin output line (at -10.16 -10.16 0) (length 2.54)
          (name "XO" (effects (font (size 1.27 1.27))))
          (number "8" (effects (font (size 1.27 1.27))))
        )
        (pin input line (at 10.16 2.54 180) (length 2.54)
          (name "~{CTS}" (effects (font (size 1.27 1.27))))
          (number "9" (effects (font (size 1.27 1.27))))
        )
      )
    )
    (symbol "LSC_Symbols:RT9013-33GB" (pin_names (offset 1.016)) (in_bom yes) (on_board yes)
      (property "Reference" "U" (at -10.16 8.89 0)
        (effects (font (size 1.27 1.27)) (justify left bottom))
      )
      (property "Value" "RT9013-33GB" (at -10.16 -8.89 0)
        (effects (font (size 1.27 1.27)) (justify left top))
      )
      (property "Footprint" "SOT94P279X129-5N" (at 1.27 -15.24 0)
        (effects (font (size 1.27 1.27)) (justify bottom) hide)
      )
      (property "Datasheet" "" (at 0 0 0)
        (effects (font (size 1.27 1.27)) hide)
      )
      (property "STANDARD" "IPC 7351B" (at 0 8.89 0)
        (effects (font (size 1.27 1.27)) (justify bottom) hide)
      )
      (property "MANUFACTURER" "Richtek Technology" (at 0 -12.7 0)
        (effects (font (size 1.27 1.27)) (justify bottom) hide)
      )
      (property "MAXIMUM_PACKAGE_HEIGHT" "1.295 mm" (at 10.16 -11.43 0)
        (effects (font (size 1.27 1.27)) (justify bottom) hide)
      )
      (property "PARTREV" "Aprill 2011" (at 0 11.43 0)
        (effects (font (size 1.27 1.27)) (justify bottom) hide)
      )
      (symbol "RT9013-33GB_0_0"
        (rectangle (start -10.16 -7.62) (end 10.16 7.62)
          (stroke (width 0.254) (type default))
          (fill (type background))
        )
        (pin power_in line (at 15.24 5.08 180) (length 5.08)
          (name "VIN" (effects (font (size 1.016 1.016))))
          (number "1" (effects (font (size 1.016 1.016))))
        )
        (pin power_in line (at 15.24 -5.08 180) (length 5.08)
          (name "GND" (effects (font (size 1.016 1.016))))
          (number "2" (effects (font (size 1.016 1.016))))
        )
        (pin input line (at -15.24 0 0) (length 5.08)
          (name "EN" (effects (font (size 1.016 1.016))))
          (number "3" (effects (font (size 1.016 1.016))))
        )
        (pin power_out line (at 15.24 0 180) (length 5.08)
          (name "VOUT" (effects (font (size 1.016 1.016))))
          (number "5" (effects (font (size 1.016 1.016))))
        )
      )
    )
    (symbol "Switch:SW_SPDT" (pin_names (offset 0) hide) (in_bom yes) (on_board yes)
      (property "Reference" "SW" (at 0 4.318 0)
        (effects (font (size 1.27 1.27)))
      )
      (property "Value" "SW_SPDT" (at 0 -5.08 0)
        (effects (font (size 1.27 1.27)))
      )
      (property "Footprint" "" (at 0 0 0)
        (effects (font (size 1.27 1.27)) hide)
      )
      (property "Datasheet" "~" (at 0 0 0)
        (effects (font (size 1.27 1.27)) hide)
      )
      (property "ki_keywords" "switch single-pole double-throw spdt ON-ON" (at 0 0 0)
        (effects (font (size 1.27 1.27)) hide)
      )
      (property "ki_description" "Switch, single pole double throw" (at 0 0 0)
        (effects (font (size 1.27 1.27)) hide)
      )
      (symbol "SW_SPDT_0_0"
        (circle (center -2.032 0) (radius 0.508)
          (stroke (width 0) (type default))
          (fill (type none))
        )
        (circle (center 2.032 -2.54) (radius 0.508)
          (stroke (width 0) (type default))
          (fill (type none))
        )
      )
      (symbol "SW_SPDT_0_1"
        (polyline
          (pts
            (xy -1.524 0.254)
            (xy 1.651 2.286)
          )
          (stroke (width 0) (type default))
          (fill (type none))
        )
        (circle (center 2.032 2.54) (radius 0.508)
          (stroke (width 0) (type default))
          (fill (type none))
        )
      )
      (symbol "SW_SPDT_1_1"
        (pin passive line (at 5.08 2.54 180) (length 2.54)
          (name "A" (effects (font (size 1.27 1.27))))
          (number "1" (effects (font (size 1.27 1.27))))
        )
        (pin passive line (at -5.08 0 0) (length 2.54)
          (name "B" (effects (font (size 1.27 1.27))))
          (number "2" (effects (font (size 1.27 1.27))))
        )
        (pin passive line (at 5.08 -2.54 180) (length 2.54)
          (name "C" (effects (font (size 1.27 1.27))))
          (number "3" (effects (font (size 1.27 1.27))))
        )
      )
    )
    (symbol "power:+3.3V" (power) (pin_names (offset 0)) (in_bom yes) (on_board yes)
      (property "Reference" "#PWR" (at 0 -3.81 0)
        (effects (font (size 1.27 1.27)) hide)
      )
      (property "Value" "+3.3V" (at 0 3.556 0)
        (effects (font (size 1.27 1.27)))
      )
      (property "Footprint" "" (at 0 0 0)
        (effects (font (size 1.27 1.27)) hide)
      )
      (property "Datasheet" "" (at 0 0 0)
        (effects (font (size 1.27 1.27)) hide)
      )
      (property "ki_keywords" "global power" (at 0 0 0)
        (effects (font (size 1.27 1.27)) hide)
      )
      (property "ki_description" "Power symbol creates a global label with name \"+3.3V\"" (at 0 0 0)
        (effects (font (size 1.27 1.27)) hide)
      )
      (symbol "+3.3V_0_1"
        (polyline
          (pts
            (xy -0.762 1.27)
            (xy 0 2.54)
          )
          (stroke (width 0) (type default))
          (fill (type none))
        )
        (polyline
          (pts
            (xy 0 0)
            (xy 0 2.54)
          )
          (stroke (width 0) (type default))
          (fill (type none))
        )
        (polyline
          (pts
            (xy 0 2.54)
            (xy 0.762 1.27)
          )
          (stroke (width 0) (type default))
          (fill (type none))
        )
      )
      (symbol "+3.3V_1_1"
        (pin power_in line (at 0 0 90) (length 0) hide
          (name "+3.3V" (effects (font (size 1.27 1.27))))
          (number "1" (effects (font (size 1.27 1.27))))
        )
      )
    )
    (symbol "power:+5V" (power) (pin_names (offset 0)) (in_bom yes) (on_board yes)
      (property "Reference" "#PWR" (at 0 -3.81 0)
        (effects (font (size 1.27 1.27)) hide)
      )
      (property "Value" "+5V" (at 0 3.556 0)
        (effects (font (size 1.27 1.27)))
      )
      (property "Footprint" "" (at 0 0 0)
        (effects (font (size 1.27 1.27)) hide)
      )
      (property "Datasheet" "" (at 0 0 0)
        (effects (font (size 1.27 1.27)) hide)
      )
      (property "ki_keywords" "global power" (at 0 0 0)
        (effects (font (size 1.27 1.27)) hide)
      )
      (property "ki_description" "Power symbol creates a global label with name \"+5V\"" (at 0 0 0)
        (effects (font (size 1.27 1.27)) hide)
      )
      (symbol "+5V_0_1"
        (polyline
          (pts
            (xy -0.762 1.27)
            (xy 0 2.54)
          )
          (stroke (width 0) (type default))
          (fill (type none))
        )
        (polyline
          (pts
            (xy 0 0)
            (xy 0 2.54)
          )
          (stroke (width 0) (type default))
          (fill (type none))
        )
        (polyline
          (pts
            (xy 0 2.54)
            (xy 0.762 1.27)
          )
          (stroke (width 0) (type default))
          (fill (type none))
        )
      )
      (symbol "+5V_1_1"
        (pin power_in line (at 0 0 90) (length 0) hide
          (name "+5V" (effects (font (size 1.27 1.27))))
          (number "1" (effects (font (size 1.27 1.27))))
        )
      )
    )
    (symbol "power:GND" (power) (pin_names (offset 0)) (in_bom yes) (on_board yes)
      (property "Reference" "#PWR" (at 0 -6.35 0)
        (effects (font (size 1.27 1.27)) hide)
      )
      (property "Value" "GND" (at 0 -3.81 0)
        (effects (font (size 1.27 1.27)))
      )
      (property "Footprint" "" (at 0 0 0)
        (effects (font (size 1.27 1.27)) hide)
      )
      (property "Datasheet" "" (at 0 0 0)
        (effects (font (size 1.27 1.27)) hide)
      )
      (property "ki_keywords" "global power" (at 0 0 0)
        (effects (font (size 1.27 1.27)) hide)
      )
      (property "ki_description" "Power symbol creates a global label with name \"GND\" , ground" (at 0 0 0)
        (effects (font (size 1.27 1.27)) hide)
      )
      (symbol "GND_0_1"
        (polyline
          (pts
            (xy 0 0)
            (xy 0 -1.27)
            (xy 1.27 -1.27)
            (xy 0 -2.54)
            (xy -1.27 -1.27)
            (xy 0 -1.27)
          )
          (stroke (width 0) (type default))
          (fill (type none))
        )
      )
      (symbol "GND_1_1"
        (pin power_in line (at 0 0 270) (length 0) hide
          (name "GND" (effects (font (size 1.27 1.27))))
          (number "1" (effects (font (size 1.27 1.27))))
        )
      )
    )
    (symbol "power:PWR_FLAG" (power) (pin_numbers hide) (pin_names (offset 0) hide) (in_bom yes) (on_board yes)
      (property "Reference" "#FLG" (at 0 1.905 0)
        (effects (font (size 1.27 1.27)) hide)
      )
      (property "Value" "PWR_FLAG" (at 0 3.81 0)
        (effects (font (size 1.27 1.27)))
      )
      (property "Footprint" "" (at 0 0 0)
        (effects (font (size 1.27 1.27)) hide)
      )
      (property "Datasheet" "~" (at 0 0 0)
        (effects (font (size 1.27 1.27)) hide)
      )
      (property "ki_keywords" "flag power" (at 0 0 0)
        (effects (font (size 1.27 1.27)) hide)
      )
      (property "ki_description" "Special symbol for telling ERC where power comes from" (at 0 0 0)
        (effects (font (size 1.27 1.27)) hide)
      )
      (symbol "PWR_FLAG_0_0"
        (pin power_out line (at 0 0 90) (length 0)
          (name "pwr" (effects (font (size 1.27 1.27))))
          (number "1" (effects (font (size 1.27 1.27))))
        )
      )
      (symbol "PWR_FLAG_0_1"
        (polyline
          (pts
            (xy 0 0)
            (xy 0 1.27)
            (xy -1.016 1.905)
            (xy 0 2.54)
            (xy 1.016 1.905)
            (xy 0 1.27)
          )
          (stroke (width 0) (type default))
          (fill (type none))
        )
      )
    )
    (symbol "power:VCC" (power) (pin_names (offset 0)) (in_bom yes) (on_board yes)
      (property "Reference" "#PWR" (at 0 -3.81 0)
        (effects (font (size 1.27 1.27)) hide)
      )
      (property "Value" "VCC" (at 0 3.81 0)
        (effects (font (size 1.27 1.27)))
      )
      (property "Footprint" "" (at 0 0 0)
        (effects (font (size 1.27 1.27)) hide)
      )
      (property "Datasheet" "" (at 0 0 0)
        (effects (font (size 1.27 1.27)) hide)
      )
      (property "ki_keywords" "global power" (at 0 0 0)
        (effects (font (size 1.27 1.27)) hide)
      )
      (property "ki_description" "Power symbol creates a global label with name \"VCC\"" (at 0 0 0)
        (effects (font (size 1.27 1.27)) hide)
      )
      (symbol "VCC_0_1"
        (polyline
          (pts
            (xy -0.762 1.27)
            (xy 0 2.54)
          )
          (stroke (width 0) (type default))
          (fill (type none))
        )
        (polyline
          (pts
            (xy 0 0)
            (xy 0 2.54)
          )
          (stroke (width 0) (type default))
          (fill (type none))
        )
        (polyline
          (pts
            (xy 0 2.54)
            (xy 0.762 1.27)
          )
          (stroke (width 0) (type default))
          (fill (type none))
        )
      )
      (symbol "VCC_1_1"
        (pin power_in line (at 0 0 90) (length 0) hide
          (name "VCC" (effects (font (size 1.27 1.27))))
          (number "1" (effects (font (size 1.27 1.27))))
        )
      )
    )
  )

  (junction (at 57.15 151.13) (diameter 0) (color 0 0 0 0)
    (uuid 0ec60f36-9dfc-4515-b800-5448dbce1511)
  )
  (junction (at 120.65 110.49) (diameter 0) (color 0 0 0 0)
    (uuid 1521da8d-286d-4d17-8550-a77500ed1a21)
  )
  (junction (at 171.45 82.55) (diameter 0) (color 0 0 0 0)
    (uuid 1c1c6bfe-1e32-4fdd-9519-a6c565b5163c)
  )
  (junction (at 101.6 100.33) (diameter 0) (color 0 0 0 0)
    (uuid 4341cf4c-fc88-4c47-9637-5937d3f28f4d)
  )
  (junction (at 139.7 69.85) (diameter 0) (color 0 0 0 0)
    (uuid 5e45322c-141d-4d60-bf8f-e0a4bf370872)
  )
  (junction (at 120.65 100.33) (diameter 0) (color 0 0 0 0)
    (uuid 84a7e3e7-d961-48f1-955a-ec3f4d7d5019)
  )
  (junction (at 137.16 69.85) (diameter 0) (color 0 0 0 0)
    (uuid 8d659c01-80bf-4c36-8ac4-324ef7a51029)
  )
  (junction (at 139.7 110.49) (diameter 0) (color 0 0 0 0)
    (uuid 98dbda1d-775c-420b-a716-c1b70309af85)
  )
  (junction (at 62.23 156.21) (diameter 0) (color 0 0 0 0)
    (uuid 9d4a6a2f-fda7-4c2f-a27a-37a851e72002)
  )
  (junction (at 156.21 148.59) (diameter 0) (color 0 0 0 0)
    (uuid d3a2792c-dc40-46d1-bf32-ad91a06490bd)
  )
  (junction (at 62.23 151.13) (diameter 0) (color 0 0 0 0)
    (uuid eef35357-05a1-41fe-ab3c-f5d16d6b0c9e)
  )

  (no_connect (at 149.86 100.33) (uuid 1f521dfa-430f-4723-aac2-327a63430471))
  (no_connect (at 41.91 101.6) (uuid 42267d86-4da7-4cbc-b7cb-3e02cdf8d9a4))
  (no_connect (at 149.86 95.25) (uuid 48c2c6d8-a459-4779-b14f-b0567839ed64))
  (no_connect (at 149.86 87.63) (uuid a0cdc7cb-4a01-470f-b854-62d820acca5f))
  (no_connect (at 31.75 106.68) (uuid b5b57c09-8cdb-4dbf-8f26-926ccaf361da))
  (no_connect (at 149.86 97.79) (uuid bd4f9d71-9996-4a6d-b63f-37669dbfb181))
  (no_connect (at 149.86 90.17) (uuid e673a304-2c4e-413f-a3ff-5947953d29fd))
  (no_connect (at 129.54 82.55) (uuid fa5b3733-769a-4aa8-b34e-0524ad40c210))
  (no_connect (at 149.86 92.71) (uuid fe4c3210-351f-41a9-b172-69540dd367fc))

  (wire (pts (xy 129.54 153.67) (xy 129.54 160.02))
    (stroke (width 0) (type default))
    (uuid 0775fc9d-e2fe-4999-8aa6-bded181b5540)
  )
  (wire (pts (xy 133.35 69.85) (xy 137.16 69.85))
    (stroke (width 0) (type default))
    (uuid 1772b09b-07ab-4938-8177-528db86694b5)
  )
  (wire (pts (xy 120.65 100.33) (xy 129.54 100.33))
    (stroke (width 0) (type default))
    (uuid 17c8d114-9204-45bd-9e64-cf81898ce921)
  )
  (wire (pts (xy 116.84 100.33) (xy 120.65 100.33))
    (stroke (width 0) (type default))
    (uuid 1bac207e-b7df-4d66-9e57-a43e2870cc8b)
  )
  (wire (pts (xy 173.99 151.13) (xy 180.34 151.13))
    (stroke (width 0) (type default))
    (uuid 1e82d1b3-285a-41be-b211-c9b224427292)
  )
  (wire (pts (xy 55.88 151.13) (xy 57.15 151.13))
    (stroke (width 0) (type default))
    (uuid 1ef7880e-6a84-4622-a142-0ca96839aaef)
  )
  (wire (pts (xy 41.91 99.06) (xy 50.8 99.06))
    (stroke (width 0) (type default))
    (uuid 23212bc7-e7d7-439a-8e15-aefdbec47d85)
  )
  (wire (pts (xy 101.6 110.49) (xy 120.65 110.49))
    (stroke (width 0) (type default))
    (uuid 2339b805-587e-4a84-9a02-4cb9f0ee0e24)
  )
  (wire (pts (xy 41.91 96.52) (xy 50.8 96.52))
    (stroke (width 0) (type default))
    (uuid 3525875e-cb71-4ef2-939a-8438c120a020)
  )
  (wire (pts (xy 166.37 80.01) (xy 171.45 80.01))
    (stroke (width 0) (type default))
    (uuid 36a6549c-7e03-43bc-b1a7-c241eb236d4a)
  )
  (wire (pts (xy 139.7 110.49) (xy 139.7 105.41))
    (stroke (width 0) (type default))
    (uuid 39cf9378-a964-4f0b-8f8b-40b0be3f92cf)
  )
  (wire (pts (xy 62.23 156.21) (xy 80.01 156.21))
    (stroke (width 0) (type default))
    (uuid 3b60c973-8713-4b75-9651-743aaf174ad1)
  )
  (wire (pts (xy 139.7 113.03) (xy 139.7 110.49))
    (stroke (width 0) (type default))
    (uuid 434cde3c-e981-403f-80df-87baec10759b)
  )
  (wire (pts (xy 57.15 151.13) (xy 62.23 151.13))
    (stroke (width 0) (type default))
    (uuid 446534ea-2628-4191-95fc-acd58809c103)
  )
  (wire (pts (xy 154.94 71.12) (xy 154.94 69.85))
    (stroke (width 0) (type default))
    (uuid 473114cb-2e00-48a3-be8a-e04563ae8778)
  )
  (wire (pts (xy 175.26 82.55) (xy 171.45 82.55))
    (stroke (width 0) (type default))
    (uuid 52592f2d-edd0-4dc7-b768-c9c50e0044fd)
  )
  (wire (pts (xy 120.65 105.41) (xy 120.65 110.49))
    (stroke (width 0) (type default))
    (uuid 58617cb8-38ef-4692-b281-ef60327a4f5d)
  )
  (wire (pts (xy 129.54 138.43) (xy 129.54 148.59))
    (stroke (width 0) (type default))
    (uuid 59f4f26e-6843-4a98-9175-7444d9c95ab9)
  )
  (wire (pts (xy 137.16 74.93) (xy 137.16 69.85))
    (stroke (width 0) (type default))
    (uuid 5b54091e-9ffb-4349-b914-4c5ead3ef139)
  )
  (wire (pts (xy 238.76 99.06) (xy 231.14 99.06))
    (stroke (width 0) (type default))
    (uuid 5e39e91e-939f-417e-b604-da63375ec4bc)
  )
  (wire (pts (xy 224.79 101.6) (xy 224.79 111.76))
    (stroke (width 0) (type default))
    (uuid 67c4d491-6003-4104-b8fa-e694d75f4779)
  )
  (wire (pts (xy 55.88 156.21) (xy 62.23 156.21))
    (stroke (width 0) (type default))
    (uuid 6a8275b6-3e52-40bb-b0ce-412d55e7e49d)
  )
  (wire (pts (xy 231.14 99.06) (xy 231.14 91.44))
    (stroke (width 0) (type default))
    (uuid 6f9a73af-79e0-48bc-8223-22ce8db027a5)
  )
  (wire (pts (xy 62.23 151.13) (xy 85.09 151.13))
    (stroke (width 0) (type default))
    (uuid 71804099-7448-458e-a825-1d21bacf5596)
  )
  (wire (pts (xy 149.86 69.85) (xy 154.94 69.85))
    (stroke (width 0) (type default))
    (uuid 7421fc0c-eec7-484a-aac5-dd1a0ee57c22)
  )
  (wire (pts (xy 120.65 110.49) (xy 139.7 110.49))
    (stroke (width 0) (type default))
    (uuid 7bdbc620-040d-465a-8a51-a8b280d3aa4b)
  )
  (wire (pts (xy 137.16 69.85) (xy 137.16 59.69))
    (stroke (width 0) (type default))
    (uuid 8703b65b-7aa5-4a04-8a28-b163d9dbdb9a)
  )
  (wire (pts (xy 129.54 167.64) (xy 129.54 176.53))
    (stroke (width 0) (type default))
    (uuid 89ff5b50-1f56-4429-88c4-f895120eaa1d)
  )
  (wire (pts (xy 34.29 106.68) (xy 34.29 113.03))
    (stroke (width 0) (type default))
    (uuid 8a47d4c7-d90b-45ba-8fe6-8b0b00978fbd)
  )
  (wire (pts (xy 236.22 104.14) (xy 238.76 104.14))
    (stroke (width 0) (type default))
    (uuid 8f21b6f6-5c0b-45d4-ac83-ff087bb2bbeb)
  )
  (wire (pts (xy 139.7 69.85) (xy 139.7 68.58))
    (stroke (width 0) (type default))
    (uuid 8f353b93-d65d-4117-904b-d2266c7cbb29)
  )
  (wire (pts (xy 101.6 95.25) (xy 101.6 100.33))
    (stroke (width 0) (type default))
    (uuid 91c0e662-b946-43f8-b2b1-a0510b7f31d9)
  )
  (wire (pts (xy 191.77 82.55) (xy 180.34 82.55))
    (stroke (width 0) (type default))
    (uuid 9433543d-da8a-4271-9f01-f7e6f14fe0fe)
  )
  (wire (pts (xy 123.19 69.85) (xy 123.19 71.12))
    (stroke (width 0) (type default))
    (uuid 94b08846-4456-4b76-90cb-ea24b86669de)
  )
  (wire (pts (xy 101.6 105.41) (xy 101.6 110.49))
    (stroke (width 0) (type default))
    (uuid aef364bd-8179-4d9e-91e4-e0c303e13de6)
  )
  (wire (pts (xy 139.7 74.93) (xy 139.7 69.85))
    (stroke (width 0) (type default))
    (uuid afa3db0a-e6b1-482f-b730-12b3ccb69f18)
  )
  (wire (pts (xy 156.21 148.59) (xy 163.83 148.59))
    (stroke (width 0) (type default))
    (uuid b184666d-e6fd-4e33-a7ac-4550a22c0de7)
  )
  (wire (pts (xy 118.11 90.17) (xy 129.54 90.17))
    (stroke (width 0) (type default))
    (uuid b5a02b4b-7697-4117-ad77-8fff23ad938d)
  )
  (wire (pts (xy 171.45 80.01) (xy 171.45 82.55))
    (stroke (width 0) (type default))
    (uuid ba26f68a-9640-4be7-8ae9-949ed0078a80)
  )
  (wire (pts (xy 45.72 91.44) (xy 45.72 85.09))
    (stroke (width 0) (type default))
    (uuid bb33b18c-1341-4f94-bd42-cf6ac4e6200a)
  )
  (wire (pts (xy 128.27 69.85) (xy 123.19 69.85))
    (stroke (width 0) (type default))
    (uuid c1bf8bcf-6d88-4030-b03e-39aeeaf443df)
  )
  (wire (pts (xy 118.11 87.63) (xy 129.54 87.63))
    (stroke (width 0) (type default))
    (uuid c6a2f8fd-b3db-4e7b-af04-22aab8d1a171)
  )
  (wire (pts (xy 158.75 80.01) (xy 149.86 80.01))
    (stroke (width 0) (type default))
    (uuid c9ca7660-12b6-473a-b230-e341e2394ba7)
  )
  (wire (pts (xy 144.78 69.85) (xy 139.7 69.85))
    (stroke (width 0) (type default))
    (uuid cd23d722-cb0c-4701-a329-7c590fe0a215)
  )
  (wire (pts (xy 41.91 91.44) (xy 45.72 91.44))
    (stroke (width 0) (type default))
    (uuid d389888b-00d5-4aa7-9a35-ce42e75a8648)
  )
  (wire (pts (xy 57.15 139.7) (xy 57.15 151.13))
    (stroke (width 0) (type default))
    (uuid dca10444-b085-4968-a556-7d0c252970d9)
  )
  (wire (pts (xy 224.79 101.6) (xy 238.76 101.6))
    (stroke (width 0) (type default))
    (uuid dd1761ea-202c-4e8c-91d4-dd8be7f95d8f)
  )
  (wire (pts (xy 80.01 156.21) (xy 80.01 165.1))
    (stroke (width 0) (type default))
    (uuid e057bbd9-af8f-465e-8b49-21d689011989)
  )
  (wire (pts (xy 173.99 146.05) (xy 180.34 146.05))
    (stroke (width 0) (type default))
    (uuid e0ad291b-6a0e-4230-b296-29e4d6db9141)
  )
  (wire (pts (xy 171.45 82.55) (xy 149.86 82.55))
    (stroke (width 0) (type default))
    (uuid f0145a14-e69b-4ad5-800a-1cdb2051b55e)
  )
  (wire (pts (xy 25.4 139.7) (xy 57.15 139.7))
    (stroke (width 0) (type default))
    (uuid f18fa35d-677d-4467-90f3-07db7fc848ea)
  )
  (wire (pts (xy 101.6 100.33) (xy 109.22 100.33))
    (stroke (width 0) (type default))
    (uuid f6a73694-d775-4995-a260-08ea52f56d6a)
  )
  (wire (pts (xy 129.54 95.25) (xy 101.6 95.25))
    (stroke (width 0) (type default))
    (uuid f6eb9eeb-c244-4729-95a1-92cca51ab8ae)
  )
  (wire (pts (xy 25.4 156.21) (xy 25.4 139.7))
    (stroke (width 0) (type default))
    (uuid f966264d-8b25-4c89-8004-796db567cc2b)
  )

  (rectangle (start 113.03 132.08) (end 139.7 184.15)
    (stroke (width 0) (type default))
    (fill (type none))
    (uuid 4dcfcabc-2211-4b26-8f85-7faf0bd113f0)
  )
  (rectangle (start 217.17 74.93) (end 257.81 129.54)
    (stroke (width 0) (type default))
    (fill (type none))
    (uuid 55b121b2-6111-477c-a79b-b9f9e82bacd0)
  )
  (rectangle (start 21.59 64.77) (end 74.93 127)
    (stroke (width 0) (type default))
    (fill (type none))
    (uuid 6c8b72f4-7db9-4bf9-81cd-f249f8f87972)
  )
  (rectangle (start 21.59 132.08) (end 105.41 182.88)
    (stroke (width 0) (type default))
    (fill (type none))
    (uuid 7021e89f-fd63-4bee-ad21-b929118f3a67)
  )
  (rectangle (start 87.63 49.53) (end 203.2 128.27)
    (stroke (width 0) (type default))
    (fill (type none))
    (uuid 90e0fff4-cf58-4fc5-9686-91b0786f9fd7)
  )
  (rectangle (start 146.05 132.08) (end 195.58 157.48)
    (stroke (width 0) (type default))
    (fill (type none))
    (uuid a5d2d8a6-116c-4d87-955e-5d4f34fddef9)
  )

  (text_box "Ici CH340G qui nécessite un crystal externe (12 MHZ). \nOn pourrait également utiliser un CH340N plus simple (SOC 8) qui a un crystal interne"
    (at 110.49 118.11 0) (size 72.39 7.62)
    (stroke (width -0.0001) (type default))
    (fill (type none))
    (effects (font (size 1.27 1.27)) (justify left top))
    (uuid fa11edf5-41e0-4ba0-86c0-30e48785f3dd)
  )

  (text "Mirco USB. En mode device, shield est laissé\nfloating. Il est ground en mode host."
    (at 25.4 124.46 0)
    (effects (font (size 1.27 1.27)) (justify left bottom))
    (uuid 09dbbbfc-1117-47ba-823d-200db78543a6)
  )
  (text "VOLTAGE SELECTOR" (at 148.59 135.89 0)
    (effects (font (size 1.27 1.27) (thickness 0.254) bold) (justify left bottom))
    (uuid 202dd19b-4d1d-4555-82d2-00d510838c06)
  )
  (text "A voir, selon la datasheet ce pourrait être 10nF" (at 144.78 63.5 0)
    (effects (font (size 1.27 1.27)) (justify left bottom))
    (uuid 2968f742-13da-4ab6-9aa6-c64ae22426b0)
  )
  (text "[en] permet d'activer ou non le LDO.\nCe LDO peut sortir 500 mA, nécessaire lors de l'activation\ndu wifi"
    (at 30.48 179.07 0)
    (effects (font (size 1.27 1.27)) (justify left bottom))
    (uuid 29b4fadb-5219-4c21-a8c0-259b918b15f5)
  )
  (text "Convertisseur SERIE" (at 90.17 53.34 0)
    (effects (font (size 1.27 1.27) (thickness 0.254) bold) (justify left bottom))
    (uuid 3a4ffdde-06bb-444a-9cf9-1ebc2ae80ed4)
  )
  (text "Connecteur UPDI (3 PINS)" (at 227.33 80.01 0)
    (effects (font (size 1.27 1.27) bold) (justify left bottom))
    (uuid 3c8e85b0-f465-4ee5-8861-a4b446540395)
  )
  (text "Les valeurs 1uF semblent le minimum... \na essayer avec 10uF par exemple "
    (at 63.5 138.43 0)
    (effects (font (size 1.27 1.27)) (justify left bottom))
    (uuid b29758eb-8cbd-43ff-b1b0-e72a73b0f79a)
  )
  (text "LDO" (at 24.13 137.16 0)
    (effects (font (size 1.27 1.27) bold) (justify left bottom))
    (uuid d173fbf6-ae44-4821-963f-e52de2c0d827)
  )
  (text "les condensateurs doivent être à max 0.5 inch du RT9013"
    (at 30.48 171.45 0)
    (effects (font (size 1.27 1.27)) (justify left bottom))
    (uuid d7ee9d5c-a0e1-4d70-9dd7-fe5045830e6b)
  )
  (text "POWER LED" (at 120.65 144.78 90)
    (effects (font (size 1.27 1.27) (thickness 0.254) bold) (justify left bottom))
    (uuid f1e1b2f7-b438-4534-a43b-0315b8ec5271)
  )
  (text "USB (Micro)" (at 24.13 68.58 0)
    (effects (font (size 1.27 1.27) (thickness 0.254) bold) (justify left bottom))
    (uuid f5d3a996-fa3b-4a67-856a-3130034ea952)
  )

  (global_label "USB_DATA_+" (shape input) (at 118.11 87.63 180) (fields_autoplaced)
    (effects (font (size 1.27 1.27) bold) (justify right))
    (uuid 3fe34463-b69b-429f-8ddd-e5c79f38f34c)
    (property "Intersheetrefs" "${INTERSHEET_REFS}" (at 103.0434 87.63 0)
      (effects (font (size 1.27 1.27)) (justify right) hide)
    )
  )
  (global_label "UPDI" (shape input) (at 236.22 104.14 180) (fields_autoplaced)
    (effects (font (size 1.27 1.27)) (justify right))
    (uuid 4c2dfab0-0ee0-40f5-85a7-14bb907c63b3)
    (property "Intersheetrefs" "${INTERSHEET_REFS}" (at 228.8389 104.14 0)
      (effects (font (size 1.27 1.27)) (justify right) hide)
    )
  )
  (global_label "UPDI" (shape input) (at 191.77 82.55 0) (fields_autoplaced)
    (effects (font (size 1.27 1.27) bold) (justify left))
    (uuid 776cc4e9-0413-45c7-af89-b059da5faf0d)
    (property "Intersheetrefs" "${INTERSHEET_REFS}" (at 199.5795 82.55 0)
      (effects (font (size 1.27 1.27)) (justify left) hide)
    )
  )
  (global_label "USB_DATA_+" (shape input) (at 50.8 96.52 0) (fields_autoplaced)
    (effects (font (size 1.27 1.27) bold) (justify left))
    (uuid 94296313-63ac-4daa-8659-56966b1881d0)
    (property "Intersheetrefs" "${INTERSHEET_REFS}" (at 65.8666 96.52 0)
      (effects (font (size 1.27 1.27)) (justify left) hide)
    )
  )
  (global_label "USB_DATA_-" (shape input) (at 118.11 90.17 180) (fields_autoplaced)
    (effects (font (size 1.27 1.27) bold) (justify right))
    (uuid d58939a0-ae22-4642-aad9-925d0b9f9fd8)
    (property "Intersheetrefs" "${INTERSHEET_REFS}" (at 103.0434 90.17 0)
      (effects (font (size 1.27 1.27)) (justify right) hide)
    )
  )
  (global_label "USB_DATA_-" (shape input) (at 50.8 99.06 0) (fields_autoplaced)
    (effects (font (size 1.27 1.27) bold) (justify left))
    (uuid fcfdbd43-a55e-430d-a0e6-a9b3c1751aa6)
    (property "Intersheetrefs" "${INTERSHEET_REFS}" (at 65.8666 99.06 0)
      (effects (font (size 1.27 1.27)) (justify left) hide)
    )
  )

  (symbol (lib_id "power:VCC") (at 156.21 148.59 90) (unit 1)
    (in_bom yes) (on_board yes) (dnp no) (fields_autoplaced)
    (uuid 15570beb-ec63-4428-8af1-0161f6880e23)
    (property "Reference" "#PWR017" (at 160.02 148.59 0)
      (effects (font (size 1.27 1.27)) hide)
    )
    (property "Value" "VCC" (at 152.4 149.225 90)
      (effects (font (size 1.27 1.27)) (justify left))
    )
    (property "Footprint" "" (at 156.21 148.59 0)
      (effects (font (size 1.27 1.27)) hide)
    )
    (property "Datasheet" "" (at 156.21 148.59 0)
      (effects (font (size 1.27 1.27)) hide)
    )
    (pin "1" (uuid de923916-c8ea-4bd4-8091-0d9ade41f6ca))
    (instances
      (project "updi_serial_programmer"
        (path "/bedf51c7-2052-4304-8e53-c9c0ecbec697"
          (reference "#PWR017") (unit 1)
        )
      )
    )
  )

  (symbol (lib_id "power:GND") (at 55.88 161.29 0) (unit 1)
    (in_bom yes) (on_board yes) (dnp no) (fields_autoplaced)
    (uuid 26f5c51a-79db-47ff-9c9a-a1aa32d26a46)
    (property "Reference" "#PWR01" (at 55.88 167.64 0)
      (effects (font (size 1.27 1.27)) hide)
    )
    (property "Value" "GND" (at 55.88 166.37 0)
      (effects (font (size 1.27 1.27)))
    )
    (property "Footprint" "" (at 55.88 161.29 0)
      (effects (font (size 1.27 1.27)) hide)
    )
    (property "Datasheet" "" (at 55.88 161.29 0)
      (effects (font (size 1.27 1.27)) hide)
    )
    (pin "1" (uuid 476e3404-34a5-4127-818d-25c283a83eb0))
    (instances
      (project "maillot-esp8266"
        (path "/5af5751e-f684-425f-9a0f-517456f1ebae"
          (reference "#PWR01") (unit 1)
        )
      )
      (project "updi_serial_programmer"
        (path "/bedf51c7-2052-4304-8e53-c9c0ecbec697"
          (reference "#PWR010") (unit 1)
        )
      )
    )
  )

  (symbol (lib_id "Device:C_Small") (at 62.23 148.59 0) (unit 1)
    (in_bom yes) (on_board yes) (dnp no)
    (uuid 277b1981-e140-47ce-b758-bd7e52f55f45)
    (property "Reference" "C1" (at 66.04 146.05 0)
      (effects (font (size 1.27 1.27)) (justify left))
    )
    (property "Value" "10uF" (at 66.04 148.59 0)
      (effects (font (size 1.27 1.27)) (justify left))
    )
    (property "Footprint" "Capacitor_SMD:C_1206_3216Metric" (at 62.23 148.59 0)
      (effects (font (size 1.27 1.27)) hide)
    )
    (property "Datasheet" "~" (at 62.23 148.59 0)
      (effects (font (size 1.27 1.27)) hide)
    )
    (pin "1" (uuid 18890072-52c1-47dc-a730-e6a1687240d8))
    (pin "2" (uuid b4aa2d68-8e1c-4bdb-b0f6-28fa74e717e2))
    (instances
      (project "maillot-esp8266"
        (path "/5af5751e-f684-425f-9a0f-517456f1ebae"
          (reference "C1") (unit 1)
        )
      )
      (project "updi_serial_programmer"
        (path "/bedf51c7-2052-4304-8e53-c9c0ecbec697"
          (reference "C3") (unit 1)
        )
      )
    )
  )

  (symbol (lib_id "power:GND") (at 34.29 113.03 0) (unit 1)
    (in_bom yes) (on_board yes) (dnp no) (fields_autoplaced)
    (uuid 31542ef3-5d4b-4b5c-b2bb-39d53e66d074)
    (property "Reference" "#PWR09" (at 34.29 119.38 0)
      (effects (font (size 1.27 1.27)) hide)
    )
    (property "Value" "GND" (at 34.29 118.11 0)
      (effects (font (size 1.27 1.27)))
    )
    (property "Footprint" "" (at 34.29 113.03 0)
      (effects (font (size 1.27 1.27)) hide)
    )
    (property "Datasheet" "" (at 34.29 113.03 0)
      (effects (font (size 1.27 1.27)) hide)
    )
    (pin "1" (uuid 23814048-171c-4f27-986e-0cbb9339d8f0))
    (instances
      (project "updi_serial_programmer"
        (path "/bedf51c7-2052-4304-8e53-c9c0ecbec697"
          (reference "#PWR09") (unit 1)
        )
      )
    )
  )

  (symbol (lib_id "Device:C_Small") (at 120.65 102.87 0) (unit 1)
    (in_bom yes) (on_board yes) (dnp no) (fields_autoplaced)
    (uuid 32ffa697-98ad-4c93-b3fa-760bbfd1c0a2)
    (property "Reference" "C5" (at 123.19 102.2413 0)
      (effects (font (size 1.27 1.27)) (justify left))
    )
    (property "Value" "22pF" (at 123.19 104.7813 0)
      (effects (font (size 1.27 1.27)) (justify left))
    )
    (property "Footprint" "Capacitor_SMD:C_1206_3216Metric" (at 120.65 102.87 0)
      (effects (font (size 1.27 1.27)) hide)
    )
    (property "Datasheet" "~" (at 120.65 102.87 0)
      (effects (font (size 1.27 1.27)) hide)
    )
    (pin "1" (uuid b121f384-3e58-41a5-8a37-fed5db480903))
    (pin "2" (uuid 856e72c7-dda1-4d42-a760-7836abdbce1b))
    (instances
      (project "updi_serial_programmer"
        (path "/bedf51c7-2052-4304-8e53-c9c0ecbec697"
          (reference "C5") (unit 1)
        )
      )
    )
  )

  (symbol (lib_id "power:+5V") (at 45.72 85.09 0) (unit 1)
    (in_bom yes) (on_board yes) (dnp no) (fields_autoplaced)
    (uuid 3d1dc30e-b362-44bf-8a94-4af20567e492)
    (property "Reference" "#PWR08" (at 45.72 88.9 0)
      (effects (font (size 1.27 1.27)) hide)
    )
    (property "Value" "+5V" (at 45.72 81.28 0)
      (effects (font (size 1.27 1.27)))
    )
    (property "Footprint" "" (at 45.72 85.09 0)
      (effects (font (size 1.27 1.27)) hide)
    )
    (property "Datasheet" "" (at 45.72 85.09 0)
      (effects (font (size 1.27 1.27)) hide)
    )
    (pin "1" (uuid ddbb78a9-55ad-4b0c-aa3b-6ae828bbf930))
    (instances
      (project "updi_serial_programmer"
        (path "/bedf51c7-2052-4304-8e53-c9c0ecbec697"
          (reference "#PWR08") (unit 1)
        )
      )
    )
  )

  (symbol (lib_id "power:GND") (at 154.94 71.12 0) (unit 1)
    (in_bom yes) (on_board yes) (dnp no) (fields_autoplaced)
    (uuid 40dcda0a-c1ba-4c32-a1bd-5b23b9b43222)
    (property "Reference" "#PWR04" (at 154.94 77.47 0)
      (effects (font (size 1.27 1.27)) hide)
    )
    (property "Value" "GND" (at 154.94 76.2 0)
      (effects (font (size 1.27 1.27)))
    )
    (property "Footprint" "" (at 154.94 71.12 0)
      (effects (font (size 1.27 1.27)) hide)
    )
    (property "Datasheet" "" (at 154.94 71.12 0)
      (effects (font (size 1.27 1.27)) hide)
    )
    (pin "1" (uuid b1d397ea-a946-4696-9d1f-b8a5d6bafdcd))
    (instances
      (project "updi_serial_programmer"
        (path "/bedf51c7-2052-4304-8e53-c9c0ecbec697"
          (reference "#PWR04") (unit 1)
        )
      )
    )
  )

  (symbol (lib_id "LSC_Symbols:RT9013-33GB") (at 40.64 156.21 0) (unit 1)
    (in_bom yes) (on_board yes) (dnp no) (fields_autoplaced)
    (uuid 4866e495-dc6f-45cf-8e14-defac5d7b81f)
    (property "Reference" "U1" (at 40.64 143.51 0)
      (effects (font (size 1.27 1.27)))
    )
    (property "Value" "RT9013-33GB" (at 40.64 146.05 0)
      (effects (font (size 1.27 1.27)))
    )
    (property "Footprint" "LSC_footprint:SOT94P279X129-5N" (at 41.91 171.45 0)
      (effects (font (size 1.27 1.27)) (justify bottom) hide)
    )
    (property "Datasheet" "" (at 40.64 156.21 0)
      (effects (font (size 1.27 1.27)) hide)
    )
    (property "STANDARD" "IPC 7351B" (at 40.64 147.32 0)
      (effects (font (size 1.27 1.27)) (justify bottom) hide)
    )
    (property "MANUFACTURER" "Richtek Technology" (at 40.64 168.91 0)
      (effects (font (size 1.27 1.27)) (justify bottom) hide)
    )
    (property "MAXIMUM_PACKAGE_HEIGHT" "1.295 mm" (at 50.8 167.64 0)
      (effects (font (size 1.27 1.27)) (justify bottom) hide)
    )
    (property "PARTREV" "Aprill 2011" (at 40.64 144.78 0)
      (effects (font (size 1.27 1.27)) (justify bottom) hide)
    )
    (pin "1" (uuid a5e77641-faa7-4dd5-baf7-a24032742068))
    (pin "2" (uuid e5438403-02ee-47c3-bc20-2364efa04616))
    (pin "3" (uuid 2b0f56aa-51eb-4e79-930b-c8b970c762a4))
    (pin "5" (uuid 78204969-e9d2-4224-b65b-97dfb89d958f))
    (instances
      (project "maillot-esp8266"
        (path "/5af5751e-f684-425f-9a0f-517456f1ebae"
          (reference "U1") (unit 1)
        )
      )
      (project "updi_serial_programmer"
        (path "/bedf51c7-2052-4304-8e53-c9c0ecbec697"
          (reference "U2") (unit 1)
        )
      )
    )
  )

  (symbol (lib_id "power:GND") (at 139.7 113.03 0) (unit 1)
    (in_bom yes) (on_board yes) (dnp no) (fields_autoplaced)
    (uuid 4b57b912-1787-4886-8817-12170f36a217)
    (property "Reference" "#PWR07" (at 139.7 119.38 0)
      (effects (font (size 1.27 1.27)) hide)
    )
    (property "Value" "GND" (at 139.7 118.11 0)
      (effects (font (size 1.27 1.27)))
    )
    (property "Footprint" "" (at 139.7 113.03 0)
      (effects (font (size 1.27 1.27)) hide)
    )
    (property "Datasheet" "" (at 139.7 113.03 0)
      (effects (font (size 1.27 1.27)) hide)
    )
    (pin "1" (uuid b0cc769e-d654-462a-901a-03bd70fd1e66))
    (instances
      (project "updi_serial_programmer"
        (path "/bedf51c7-2052-4304-8e53-c9c0ecbec697"
          (reference "#PWR07") (unit 1)
        )
      )
    )
  )

  (symbol (lib_id "Device:C_Small") (at 62.23 158.75 0) (unit 1)
    (in_bom yes) (on_board yes) (dnp no) (fields_autoplaced)
    (uuid 4f6f2f07-4962-4c71-b0d7-592e17239db9)
    (property "Reference" "C2" (at 64.77 158.1213 0)
      (effects (font (size 1.27 1.27)) (justify left))
    )
    (property "Value" "10uF" (at 64.77 160.6613 0)
      (effects (font (size 1.27 1.27)) (justify left))
    )
    (property "Footprint" "Capacitor_SMD:C_1206_3216Metric" (at 62.23 158.75 0)
      (effects (font (size 1.27 1.27)) hide)
    )
    (property "Datasheet" "~" (at 62.23 158.75 0)
      (effects (font (size 1.27 1.27)) hide)
    )
    (pin "1" (uuid 691927a4-1138-4105-90e7-ee6b63411e1c))
    (pin "2" (uuid 6c5f9c39-b7fc-4b12-ac03-879800376ee8))
    (instances
      (project "maillot-esp8266"
        (path "/5af5751e-f684-425f-9a0f-517456f1ebae"
          (reference "C2") (unit 1)
        )
      )
      (project "updi_serial_programmer"
        (path "/bedf51c7-2052-4304-8e53-c9c0ecbec697"
          (reference "C4") (unit 1)
        )
      )
    )
  )

  (symbol (lib_id "power:VCC") (at 139.7 68.58 0) (unit 1)
    (in_bom yes) (on_board yes) (dnp no) (fields_autoplaced)
    (uuid 4f9c8260-1bdc-42fc-9ec7-3a51ce83361a)
    (property "Reference" "#PWR03" (at 139.7 72.39 0)
      (effects (font (size 1.27 1.27)) hide)
    )
    (property "Value" "VCC" (at 139.7 63.5 0)
      (effects (font (size 1.27 1.27)))
    )
    (property "Footprint" "" (at 139.7 68.58 0)
      (effects (font (size 1.27 1.27)) hide)
    )
    (property "Datasheet" "" (at 139.7 68.58 0)
      (effects (font (size 1.27 1.27)) hide)
    )
    (pin "1" (uuid e013f5e5-70b8-4c25-8314-44f8fa582e19))
    (instances
      (project "updi_serial_programmer"
        (path "/bedf51c7-2052-4304-8e53-c9c0ecbec697"
          (reference "#PWR03") (unit 1)
        )
      )
    )
  )

  (symbol (lib_id "power:GND") (at 129.54 176.53 0) (unit 1)
    (in_bom yes) (on_board yes) (dnp no) (fields_autoplaced)
    (uuid 59d87e01-72fe-4479-9420-99a145e55cfa)
    (property "Reference" "#PWR016" (at 129.54 182.88 0)
      (effects (font (size 1.27 1.27)) hide)
    )
    (property "Value" "GND" (at 129.54 181.61 0)
      (effects (font (size 1.27 1.27)))
    )
    (property "Footprint" "" (at 129.54 176.53 0)
      (effects (font (size 1.27 1.27)) hide)
    )
    (property "Datasheet" "" (at 129.54 176.53 0)
      (effects (font (size 1.27 1.27)) hide)
    )
    (pin "1" (uuid ab76e87c-4c98-4cea-9411-848d94ca6700))
    (instances
      (project "updi_serial_programmer"
        (path "/bedf51c7-2052-4304-8e53-c9c0ecbec697"
          (reference "#PWR016") (unit 1)
        )
      )
    )
  )

  (symbol (lib_id "power:GND") (at 123.19 71.12 0) (unit 1)
    (in_bom yes) (on_board yes) (dnp no) (fields_autoplaced)
    (uuid 64ebd7b8-0948-4242-a66d-1c9fbac50306)
    (property "Reference" "#PWR06" (at 123.19 77.47 0)
      (effects (font (size 1.27 1.27)) hide)
    )
    (property "Value" "GND" (at 123.19 76.2 0)
      (effects (font (size 1.27 1.27)))
    )
    (property "Footprint" "" (at 123.19 71.12 0)
      (effects (font (size 1.27 1.27)) hide)
    )
    (property "Datasheet" "" (at 123.19 71.12 0)
      (effects (font (size 1.27 1.27)) hide)
    )
    (pin "1" (uuid c4adca39-5329-4c32-8b76-9675ef27fd8f))
    (instances
      (project "updi_serial_programmer"
        (path "/bedf51c7-2052-4304-8e53-c9c0ecbec697"
          (reference "#PWR06") (unit 1)
        )
      )
    )
  )

  (symbol (lib_id "power:GND") (at 62.23 161.29 0) (unit 1)
    (in_bom yes) (on_board yes) (dnp no) (fields_autoplaced)
    (uuid 728e0eef-43e2-4b67-9d38-d97c49433d1b)
    (property "Reference" "#PWR05" (at 62.23 167.64 0)
      (effects (font (size 1.27 1.27)) hide)
    )
    (property "Value" "GND" (at 62.23 166.37 0)
      (effects (font (size 1.27 1.27)))
    )
    (property "Footprint" "" (at 62.23 161.29 0)
      (effects (font (size 1.27 1.27)) hide)
    )
    (property "Datasheet" "" (at 62.23 161.29 0)
      (effects (font (size 1.27 1.27)) hide)
    )
    (pin "1" (uuid 8bb7d4a7-71fd-4c79-bead-abdd23d838cd))
    (instances
      (project "maillot-esp8266"
        (path "/5af5751e-f684-425f-9a0f-517456f1ebae"
          (reference "#PWR05") (unit 1)
        )
      )
      (project "updi_serial_programmer"
        (path "/bedf51c7-2052-4304-8e53-c9c0ecbec697"
          (reference "#PWR012") (unit 1)
        )
      )
    )
  )

  (symbol (lib_id "Device:LED") (at 129.54 163.83 90) (unit 1)
    (in_bom yes) (on_board yes) (dnp no) (fields_autoplaced)
    (uuid 73051e04-fd9b-445f-bff5-22e87de91828)
    (property "Reference" "D2" (at 133.35 164.7825 90)
      (effects (font (size 1.27 1.27)) (justify right))
    )
    (property "Value" "LED" (at 133.35 167.3225 90)
      (effects (font (size 1.27 1.27)) (justify right))
    )
    (property "Footprint" "LED_SMD:LED_1206_3216Metric" (at 129.54 163.83 0)
      (effects (font (size 1.27 1.27)) hide)
    )
    (property "Datasheet" "~" (at 129.54 163.83 0)
      (effects (font (size 1.27 1.27)) hide)
    )
    (pin "1" (uuid 30a9e72a-e9c0-45de-8f2f-0e62d518f372))
    (pin "2" (uuid c0cb8225-dd51-418c-bb20-26178c85e73c))
    (instances
      (project "updi_serial_programmer"
        (path "/bedf51c7-2052-4304-8e53-c9c0ecbec697"
          (reference "D2") (unit 1)
        )
      )
    )
  )

  (symbol (lib_id "Connector:USB_B_Micro") (at 34.29 96.52 0) (unit 1)
    (in_bom yes) (on_board yes) (dnp no) (fields_autoplaced)
    (uuid 756b06f0-0e93-4a75-80f9-44692c0d0315)
    (property "Reference" "J2" (at 34.29 85.09 0)
      (effects (font (size 1.27 1.27)))
    )
    (property "Value" "USB_B_Micro" (at 34.29 87.63 0)
      (effects (font (size 1.27 1.27)))
    )
    (property "Footprint" "LSC_footprint:USB micro" (at 38.1 97.79 0)
      (effects (font (size 1.27 1.27)) hide)
    )
    (property "Datasheet" "~" (at 38.1 97.79 0)
      (effects (font (size 1.27 1.27)) hide)
    )
    (pin "1" (uuid fa71ebf5-8c97-4733-96ae-c019b46526de))
    (pin "2" (uuid 83126063-276e-4e3a-bbae-b644a8348f76))
    (pin "3" (uuid 096408fd-a52c-45b6-92e4-25f5c83e2cea))
    (pin "4" (uuid a8eb5146-5184-4966-a99e-012db2e572a1))
    (pin "5" (uuid 8076a618-c12f-4342-86c4-39d7e7a0e915))
    (pin "6" (uuid ae615d51-0086-42f6-a85e-ecb05af52ad6))
    (instances
      (project "updi_serial_programmer"
        (path "/bedf51c7-2052-4304-8e53-c9c0ecbec697"
          (reference "J2") (unit 1)
        )
      )
    )
  )

  (symbol (lib_id "Device:Crystal") (at 113.03 100.33 0) (unit 1)
    (in_bom yes) (on_board yes) (dnp no) (fields_autoplaced)
    (uuid 77da157f-937e-469a-84a1-aae294192443)
    (property "Reference" "Y1" (at 113.03 93.98 0)
      (effects (font (size 1.27 1.27)))
    )
    (property "Value" "12 MHz" (at 113.03 96.52 0)
      (effects (font (size 1.27 1.27)))
    )
    (property "Footprint" "Crystal:Crystal_HC49-4H_Vertical" (at 113.03 100.33 0)
      (effects (font (size 1.27 1.27)) hide)
    )
    (property "Datasheet" "~" (at 113.03 100.33 0)
      (effects (font (size 1.27 1.27)) hide)
    )
    (pin "1" (uuid d6cbf9b6-d7d7-4552-b2a6-56affe3638af))
    (pin "2" (uuid 46ac5a9b-de4d-4e92-b1b9-3e5e5cf249f0))
    (instances
      (project "updi_serial_programmer"
        (path "/bedf51c7-2052-4304-8e53-c9c0ecbec697"
          (reference "Y1") (unit 1)
        )
      )
    )
  )

  (symbol (lib_id "power:+3.3V") (at 180.34 146.05 270) (unit 1)
    (in_bom yes) (on_board yes) (dnp no) (fields_autoplaced)
    (uuid 781f5260-143b-4824-a5df-17ddaacf7227)
    (property "Reference" "#PWR019" (at 176.53 146.05 0)
      (effects (font (size 1.27 1.27)) hide)
    )
    (property "Value" "+3.3V" (at 184.15 146.685 90)
      (effects (font (size 1.27 1.27)) (justify left))
    )
    (property "Footprint" "" (at 180.34 146.05 0)
      (effects (font (size 1.27 1.27)) hide)
    )
    (property "Datasheet" "" (at 180.34 146.05 0)
      (effects (font (size 1.27 1.27)) hide)
    )
    (pin "1" (uuid de77ec7d-853c-4c4d-9a67-7b02e2da27e6))
    (instances
      (project "updi_serial_programmer"
        (path "/bedf51c7-2052-4304-8e53-c9c0ecbec697"
          (reference "#PWR019") (unit 1)
        )
      )
    )
  )

  (symbol (lib_id "power:+5V") (at 180.34 151.13 270) (unit 1)
    (in_bom yes) (on_board yes) (dnp no) (fields_autoplaced)
    (uuid 7874f195-7eb0-439b-b97b-136a951478b6)
    (property "Reference" "#PWR018" (at 176.53 151.13 0)
      (effects (font (size 1.27 1.27)) hide)
    )
    (property "Value" "+5V" (at 184.15 151.765 90)
      (effects (font (size 1.27 1.27)) (justify left))
    )
    (property "Footprint" "" (at 180.34 151.13 0)
      (effects (font (size 1.27 1.27)) hide)
    )
    (property "Datasheet" "" (at 180.34 151.13 0)
      (effects (font (size 1.27 1.27)) hide)
    )
    (pin "1" (uuid 273c4991-a8d7-4307-a05d-5812c59271f8))
    (instances
      (project "updi_serial_programmer"
        (path "/bedf51c7-2052-4304-8e53-c9c0ecbec697"
          (reference "#PWR018") (unit 1)
        )
      )
    )
  )

  (symbol (lib_id "Device:C_Small") (at 147.32 69.85 90) (unit 1)
    (in_bom yes) (on_board yes) (dnp no)
    (uuid 7a2842ea-7724-4ba0-a678-927938b27813)
    (property "Reference" "C1" (at 147.32 72.39 90)
      (effects (font (size 1.27 1.27)))
    )
    (property "Value" "100n" (at 147.32 66.04 90)
      (effects (font (size 1.27 1.27)))
    )
    (property "Footprint" "Capacitor_SMD:C_0603_1608Metric_Pad1.08x0.95mm_HandSolder" (at 147.32 69.85 0)
      (effects (font (size 1.27 1.27)) hide)
    )
    (property "Datasheet" "~" (at 147.32 69.85 0)
      (effects (font (size 1.27 1.27)) hide)
    )
    (pin "1" (uuid 6dc9488f-e0d0-456d-b3ba-945488eb6474))
    (pin "2" (uuid 2c978f87-09e4-4df0-af41-e24cd65b6fa6))
    (instances
      (project "updi_serial_programmer"
        (path "/bedf51c7-2052-4304-8e53-c9c0ecbec697"
          (reference "C1") (unit 1)
        )
      )
    )
  )

  (symbol (lib_id "power:VCC") (at 231.14 91.44 0) (unit 1)
    (in_bom yes) (on_board yes) (dnp no) (fields_autoplaced)
    (uuid 8b566c7d-79f8-455e-9d08-6a39a34a612e)
    (property "Reference" "#PWR01" (at 231.14 95.25 0)
      (effects (font (size 1.27 1.27)) hide)
    )
    (property "Value" "VCC" (at 231.14 87.63 0)
      (effects (font (size 1.27 1.27)))
    )
    (property "Footprint" "" (at 231.14 91.44 0)
      (effects (font (size 1.27 1.27)) hide)
    )
    (property "Datasheet" "" (at 231.14 91.44 0)
      (effects (font (size 1.27 1.27)) hide)
    )
    (pin "1" (uuid 7744a278-0513-4dc7-bed3-818bcc21f494))
    (instances
      (project "updi_serial_programmer"
        (path "/bedf51c7-2052-4304-8e53-c9c0ecbec697"
          (reference "#PWR01") (unit 1)
        )
      )
    )
  )

  (symbol (lib_id "Device:D") (at 162.56 80.01 0) (unit 1)
    (in_bom yes) (on_board yes) (dnp no)
    (uuid 9eca05ab-59f1-4704-afa5-fa3ab986fdda)
    (property "Reference" "D1" (at 162.56 76.2 0)
      (effects (font (size 1.27 1.27)))
    )
    (property "Value" "4148" (at 162.56 73.66 0)
      (effects (font (size 1.27 1.27)))
    )
    (property "Footprint" "Diode_THT:D_DO-41_SOD81_P7.62mm_Horizontal" (at 162.56 80.01 0)
      (effects (font (size 1.27 1.27)) hide)
    )
    (property "Datasheet" "~" (at 162.56 80.01 0)
      (effects (font (size 1.27 1.27)) hide)
    )
    (property "Sim.Device" "D" (at 162.56 80.01 0)
      (effects (font (size 1.27 1.27)) hide)
    )
    (property "Sim.Pins" "1=K 2=A" (at 162.56 80.01 0)
      (effects (font (size 1.27 1.27)) hide)
    )
    (pin "1" (uuid f0723887-576d-42ec-907f-1ec233cf1e42))
    (pin "2" (uuid be0c4810-5846-4492-8c53-8693f8540dee))
    (instances
      (project "updi_serial_programmer"
        (path "/bedf51c7-2052-4304-8e53-c9c0ecbec697"
          (reference "D1") (unit 1)
        )
      )
    )
  )

  (symbol (lib_id "Device:C_Small") (at 130.81 69.85 270) (unit 1)
    (in_bom yes) (on_board yes) (dnp no)
    (uuid a0e8e6e5-2372-4524-bfc5-8478b951332a)
    (property "Reference" "C2" (at 130.81 72.39 90)
      (effects (font (size 1.27 1.27)))
    )
    (property "Value" "100n" (at 130.81 66.04 90)
      (effects (font (size 1.27 1.27)))
    )
    (property "Footprint" "Capacitor_SMD:C_0603_1608Metric_Pad1.08x0.95mm_HandSolder" (at 130.81 69.85 0)
      (effects (font (size 1.27 1.27)) hide)
    )
    (property "Datasheet" "~" (at 130.81 69.85 0)
      (effects (font (size 1.27 1.27)) hide)
    )
    (pin "1" (uuid e7f438c7-82f4-49f9-87a4-e23eaaa98dd0))
    (pin "2" (uuid 7a7f1b83-cc1b-4dce-941c-de5faccd7112))
    (instances
      (project "updi_serial_programmer"
        (path "/bedf51c7-2052-4304-8e53-c9c0ecbec697"
          (reference "C2") (unit 1)
        )
      )
    )
  )

  (symbol (lib_id "power:+3.3V") (at 80.01 165.1 270) (unit 1)
    (in_bom yes) (on_board yes) (dnp no)
    (uuid aedf2129-ed99-4680-9417-d4a846c60a88)
    (property "Reference" "#PWR07" (at 76.2 165.1 0)
      (effects (font (size 1.27 1.27)) hide)
    )
    (property "Value" "+3.3V" (at 83.82 165.0999 90)
      (effects (font (size 1.27 1.27)) (justify left))
    )
    (property "Footprint" "" (at 80.01 165.1 0)
      (effects (font (size 1.27 1.27)) hide)
    )
    (property "Datasheet" "" (at 80.01 165.1 0)
      (effects (font (size 1.27 1.27)) hide)
    )
    (pin "1" (uuid 41331291-95e3-4956-8ad9-efde778469df))
    (instances
      (project "maillot-esp8266"
        (path "/5af5751e-f684-425f-9a0f-517456f1ebae"
          (reference "#PWR07") (unit 1)
        )
      )
      (project "updi_serial_programmer"
        (path "/bedf51c7-2052-4304-8e53-c9c0ecbec697"
          (reference "#PWR013") (unit 1)
        )
      )
    )
  )

  (symbol (lib_id "power:GND") (at 224.79 111.76 0) (unit 1)
    (in_bom yes) (on_board yes) (dnp no) (fields_autoplaced)
    (uuid b1b4295a-2bc1-420f-93ec-7f8f57ac1d90)
    (property "Reference" "#PWR02" (at 224.79 118.11 0)
      (effects (font (size 1.27 1.27)) hide)
    )
    (property "Value" "GND" (at 224.79 116.84 0)
      (effects (font (size 1.27 1.27)))
    )
    (property "Footprint" "" (at 224.79 111.76 0)
      (effects (font (size 1.27 1.27)) hide)
    )
    (property "Datasheet" "" (at 224.79 111.76 0)
      (effects (font (size 1.27 1.27)) hide)
    )
    (pin "1" (uuid 2a39206e-2c2e-4fa5-aa6a-36f8fc269f85))
    (instances
      (project "updi_serial_programmer"
        (path "/bedf51c7-2052-4304-8e53-c9c0ecbec697"
          (reference "#PWR02") (unit 1)
        )
      )
    )
  )

  (symbol (lib_id "Connector:Conn_01x03_Pin") (at 243.84 101.6 180) (unit 1)
    (in_bom yes) (on_board yes) (dnp no) (fields_autoplaced)
    (uuid b6957f61-bb33-4df4-997e-af30d8d198fd)
    (property "Reference" "J1" (at 245.11 100.965 0)
      (effects (font (size 1.27 1.27)) (justify right))
    )
    (property "Value" "UPDI" (at 245.11 103.505 0)
      (effects (font (size 1.27 1.27)) (justify right))
    )
    (property "Footprint" "Connector_PinHeader_2.54mm:PinHeader_1x03_P2.54mm_Horizontal" (at 243.84 101.6 0)
      (effects (font (size 1.27 1.27)) hide)
    )
    (property "Datasheet" "~" (at 243.84 101.6 0)
      (effects (font (size 1.27 1.27)) hide)
    )
    (pin "1" (uuid fb078c3d-e663-4c11-a6df-5acb76289e3e))
    (pin "2" (uuid 672bda51-fbbc-4eda-9d20-9d418a3f9f46))
    (pin "3" (uuid c8fe0428-f378-448c-85e0-5ea681c9a3b6))
    (instances
      (project "updi_serial_programmer"
        (path "/bedf51c7-2052-4304-8e53-c9c0ecbec697"
          (reference "J1") (unit 1)
        )
      )
    )
  )

  (symbol (lib_id "Device:C_Small") (at 101.6 102.87 0) (unit 1)
    (in_bom yes) (on_board yes) (dnp no)
    (uuid bc51f723-ee16-4738-b44b-1fe581f920ff)
    (property "Reference" "C6" (at 96.52 101.6 0)
      (effects (font (size 1.27 1.27)) (justify left))
    )
    (property "Value" "22pF" (at 95.25 105.41 0)
      (effects (font (size 1.27 1.27)) (justify left))
    )
    (property "Footprint" "Capacitor_SMD:C_1206_3216Metric" (at 101.6 102.87 0)
      (effects (font (size 1.27 1.27)) hide)
    )
    (property "Datasheet" "~" (at 101.6 102.87 0)
      (effects (font (size 1.27 1.27)) hide)
    )
    (pin "1" (uuid ce2994ff-23ef-4187-a7df-8d9c7f91154f))
    (pin "2" (uuid 984b2fde-9fee-421d-9397-7b666a442aed))
    (instances
      (project "updi_serial_programmer"
        (path "/bedf51c7-2052-4304-8e53-c9c0ecbec697"
          (reference "C6") (unit 1)
        )
      )
    )
  )

  (symbol (lib_id "Switch:SW_SPDT") (at 168.91 148.59 0) (unit 1)
    (in_bom yes) (on_board yes) (dnp no) (fields_autoplaced)
    (uuid beea1de2-3db1-449f-8ed2-a932c2f13315)
    (property "Reference" "SW1" (at 168.91 142.24 0)
      (effects (font (size 1.27 1.27)))
    )
    (property "Value" "VOLT_SELECTOR" (at 168.91 144.78 0)
      (effects (font (size 1.27 1.27)))
    )
    (property "Footprint" "LSC_footprint:switch-3-pin" (at 168.91 148.59 0)
      (effects (font (size 1.27 1.27)) hide)
    )
    (property "Datasheet" "~" (at 168.91 148.59 0)
      (effects (font (size 1.27 1.27)) hide)
    )
    (pin "1" (uuid 5a2e48e0-906e-4979-b4e3-ef9c487b7cc7))
    (pin "2" (uuid e2bcbdc5-082b-4db0-acb8-b70f0bbc0251))
    (pin "3" (uuid 58f4402a-dfb8-4a98-9587-5cddbe13a900))
    (instances
      (project "updi_serial_programmer"
        (path "/bedf51c7-2052-4304-8e53-c9c0ecbec697"
          (reference "SW1") (unit 1)
        )
      )
    )
  )

  (symbol (lib_id "Device:R_Small") (at 177.8 82.55 270) (unit 1)
    (in_bom yes) (on_board yes) (dnp no) (fields_autoplaced)
    (uuid cb81216b-4001-4ead-a0de-8a4f3d4e22c3)
    (property "Reference" "R1" (at 177.8 87.63 90)
      (effects (font (size 1.27 1.27)))
    )
    (property "Value" "470R" (at 177.8 85.09 90)
      (effects (font (size 1.27 1.27)))
    )
    (property "Footprint" "Resistor_SMD:R_0805_2012Metric" (at 177.8 82.55 0)
      (effects (font (size 1.27 1.27)) hide)
    )
    (property "Datasheet" "~" (at 177.8 82.55 0)
      (effects (font (size 1.27 1.27)) hide)
    )
    (pin "1" (uuid 865adba4-3b6d-41ea-9258-bb8b216a02ca))
    (pin "2" (uuid 137c4173-f260-4884-bb6c-a4adc591b268))
    (instances
      (project "updi_serial_programmer"
        (path "/bedf51c7-2052-4304-8e53-c9c0ecbec697"
          (reference "R1") (unit 1)
        )
      )
    )
  )

  (symbol (lib_id "power:PWR_FLAG") (at 156.21 148.59 0) (unit 1)
    (in_bom yes) (on_board yes) (dnp no) (fields_autoplaced)
    (uuid ccc60453-ab37-40db-a7b9-9ce4973afa34)
    (property "Reference" "#FLG02" (at 156.21 146.685 0)
      (effects (font (size 1.27 1.27)) hide)
    )
    (property "Value" "PWR_FLAG" (at 156.21 144.78 0)
      (effects (font (size 1.27 1.27)))
    )
    (property "Footprint" "" (at 156.21 148.59 0)
      (effects (font (size 1.27 1.27)) hide)
    )
    (property "Datasheet" "~" (at 156.21 148.59 0)
      (effects (font (size 1.27 1.27)) hide)
    )
    (pin "1" (uuid ddeb2a29-3f49-4bf8-81d1-4d826e82bdca))
    (instances
      (project "updi_serial_programmer"
        (path "/bedf51c7-2052-4304-8e53-c9c0ecbec697"
          (reference "#FLG02") (unit 1)
        )
      )
    )
  )

  (symbol (lib_id "Device:R_Small") (at 129.54 151.13 0) (unit 1)
    (in_bom yes) (on_board yes) (dnp no) (fields_autoplaced)
    (uuid dbd57142-732a-4ba4-b915-39efbe8d51ff)
    (property "Reference" "R2" (at 132.08 150.495 0)
      (effects (font (size 1.27 1.27)) (justify left))
    )
    (property "Value" "1K" (at 132.08 153.035 0)
      (effects (font (size 1.27 1.27)) (justify left))
    )
    (property "Footprint" "Resistor_SMD:R_1206_3216Metric" (at 129.54 151.13 0)
      (effects (font (size 1.27 1.27)) hide)
    )
    (property "Datasheet" "~" (at 129.54 151.13 0)
      (effects (font (size 1.27 1.27)) hide)
    )
    (pin "1" (uuid c034f2d7-6ecb-4629-babf-23aa7e07a7f7))
    (pin "2" (uuid 1a85cba6-c140-4cde-a24f-3eec219f744d))
    (instances
      (project "updi_serial_programmer"
        (path "/bedf51c7-2052-4304-8e53-c9c0ecbec697"
          (reference "R2") (unit 1)
        )
      )
    )
  )

  (symbol (lib_id "power:+3.3V") (at 137.16 59.69 0) (unit 1)
    (in_bom yes) (on_board yes) (dnp no) (fields_autoplaced)
    (uuid e9bfae7f-96c2-46a2-8be0-8de679bd39f4)
    (property "Reference" "#PWR05" (at 137.16 63.5 0)
      (effects (font (size 1.27 1.27)) hide)
    )
    (property "Value" "+3.3V" (at 137.16 54.61 0)
      (effects (font (size 1.27 1.27)))
    )
    (property "Footprint" "" (at 137.16 59.69 0)
      (effects (font (size 1.27 1.27)) hide)
    )
    (property "Datasheet" "" (at 137.16 59.69 0)
      (effects (font (size 1.27 1.27)) hide)
    )
    (pin "1" (uuid b0771114-a05b-4c55-8822-9fea263f1896))
    (instances
      (project "updi_serial_programmer"
        (path "/bedf51c7-2052-4304-8e53-c9c0ecbec697"
          (reference "#PWR05") (unit 1)
        )
      )
    )
  )

  (symbol (lib_id "power:GND") (at 62.23 146.05 180) (unit 1)
    (in_bom yes) (on_board yes) (dnp no) (fields_autoplaced)
    (uuid ecb794dd-5d98-4c87-b794-0833f3ea66bf)
    (property "Reference" "#PWR04" (at 62.23 139.7 0)
      (effects (font (size 1.27 1.27)) hide)
    )
    (property "Value" "GND" (at 62.23 140.97 0)
      (effects (font (size 1.27 1.27)))
    )
    (property "Footprint" "" (at 62.23 146.05 0)
      (effects (font (size 1.27 1.27)) hide)
    )
    (property "Datasheet" "" (at 62.23 146.05 0)
      (effects (font (size 1.27 1.27)) hide)
    )
    (pin "1" (uuid 8642cab2-3ac4-47c3-8c40-c72767e6becf))
    (instances
      (project "maillot-esp8266"
        (path "/5af5751e-f684-425f-9a0f-517456f1ebae"
          (reference "#PWR04") (unit 1)
        )
      )
      (project "updi_serial_programmer"
        (path "/bedf51c7-2052-4304-8e53-c9c0ecbec697"
          (reference "#PWR011") (unit 1)
        )
      )
    )
  )

  (symbol (lib_id "power:+3.3V") (at 129.54 138.43 0) (unit 1)
    (in_bom yes) (on_board yes) (dnp no) (fields_autoplaced)
    (uuid ed0e49c3-d580-45df-89d1-6acf5a6bc135)
    (property "Reference" "#PWR020" (at 129.54 142.24 0)
      (effects (font (size 1.27 1.27)) hide)
    )
    (property "Value" "+3.3V" (at 129.54 134.62 0)
      (effects (font (size 1.27 1.27)))
    )
    (property "Footprint" "" (at 129.54 138.43 0)
      (effects (font (size 1.27 1.27)) hide)
    )
    (property "Datasheet" "" (at 129.54 138.43 0)
      (effects (font (size 1.27 1.27)) hide)
    )
    (pin "1" (uuid 51aedc2a-8914-441b-91ff-6276b5f26a3f))
    (instances
      (project "updi_serial_programmer"
        (path "/bedf51c7-2052-4304-8e53-c9c0ecbec697"
          (reference "#PWR020") (unit 1)
        )
      )
    )
  )

  (symbol (lib_id "power:+5V") (at 85.09 151.13 270) (unit 1)
    (in_bom yes) (on_board yes) (dnp no) (fields_autoplaced)
    (uuid ef10a724-442f-41ad-8b55-bdf6ae2d486e)
    (property "Reference" "#PWR014" (at 81.28 151.13 0)
      (effects (font (size 1.27 1.27)) hide)
    )
    (property "Value" "+5V" (at 88.9 151.765 90)
      (effects (font (size 1.27 1.27)) (justify left))
    )
    (property "Footprint" "" (at 85.09 151.13 0)
      (effects (font (size 1.27 1.27)) hide)
    )
    (property "Datasheet" "" (at 85.09 151.13 0)
      (effects (font (size 1.27 1.27)) hide)
    )
    (pin "1" (uuid 3085cfeb-620f-4db6-b623-67594ca15ad7))
    (instances
      (project "updi_serial_programmer"
        (path "/bedf51c7-2052-4304-8e53-c9c0ecbec697"
          (reference "#PWR014") (unit 1)
        )
      )
    )
  )

  (symbol (lib_id "Interface_USB:CH340G") (at 139.7 90.17 0) (unit 1)
    (in_bom yes) (on_board yes) (dnp no)
    (uuid f810efac-ede2-4125-b5cc-151d4a70f979)
    (property "Reference" "U1" (at 135.89 104.14 0)
      (effects (font (size 1.27 1.27)) (justify right))
    )
    (property "Value" "CH340G" (at 148.59 104.14 0)
      (effects (font (size 1.27 1.27)) (justify right))
    )
    (property "Footprint" "Package_SO:SOIC-16_3.9x9.9mm_P1.27mm" (at 140.97 104.14 0)
      (effects (font (size 1.27 1.27)) (justify left) hide)
    )
    (property "Datasheet" "http://www.datasheet5.com/pdf-local-2195953" (at 130.81 69.85 0)
      (effects (font (size 1.27 1.27)) hide)
    )
    (pin "1" (uuid 34078e9e-6b42-4db2-a062-1e1969008920))
    (pin "10" (uuid 78954b6d-7a11-4006-9021-a52c7fcfb063))
    (pin "11" (uuid 4d4f20ff-cec4-44af-9404-b18e90575b7e))
    (pin "12" (uuid 7bc6da60-d23f-4cd5-a3f4-0120dc185ba7))
    (pin "13" (uuid 42f93d1b-48d8-47d8-9308-033cd6a4e0c5))
    (pin "14" (uuid e9ae7d4e-df42-449a-9932-6fa7708d90fb))
    (pin "15" (uuid d5836d9a-6b4d-4ade-ae70-3b4f1a68218b))
    (pin "16" (uuid 0ac6f11b-202d-4d97-92b8-5a541a6f0f86))
    (pin "2" (uuid 4b8dcdc6-e874-462c-8cf4-b3b30358bc4f))
    (pin "3" (uuid f3eff198-e177-4ad8-8cbd-854a18c0ecaf))
    (pin "4" (uuid 15162f9a-c800-4b1c-96ef-65b07fb2931b))
    (pin "5" (uuid c35b99f8-5d80-4ac4-934e-a1947580fcc1))
    (pin "6" (uuid 06a317df-705e-4a5f-af75-27b631debeb2))
    (pin "7" (uuid 95ec2c4c-99e1-46b4-bc88-2a9457791bc7))
    (pin "8" (uuid ae6e9c74-b8bf-41c4-8b36-80cc847439b8))
    (pin "9" (uuid cef27761-adb8-47ef-b5d6-cdcb3653032b))
    (instances
      (project "updi_serial_programmer"
        (path "/bedf51c7-2052-4304-8e53-c9c0ecbec697"
          (reference "U1") (unit 1)
        )
      )
    )
  )

  (sheet_instances
    (path "/" (page "1"))
  )
)
