G04 #@! TF.GenerationSoftware,KiCad,Pcbnew,(7.0.0-0)*
G04 #@! TF.CreationDate,2023-05-21T21:46:06+02:00*
G04 #@! TF.ProjectId,updi_serial_programmer,75706469-5f73-4657-9269-616c5f70726f,rev?*
G04 #@! TF.SameCoordinates,PX13c9eb0PY4b571c0*
G04 #@! TF.FileFunction,Copper,L1,Top*
G04 #@! TF.FilePolarity,Positive*
%FSLAX46Y46*%
G04 Gerber Fmt 4.6, Leading zero omitted, Abs format (unit mm)*
G04 Created by KiCad (PCBNEW (7.0.0-0)) date 2023-05-21 21:46:06*
%MOMM*%
%LPD*%
G01*
G04 APERTURE LIST*
G04 Aperture macros list*
%AMRoundRect*
0 Rectangle with rounded corners*
0 $1 Rounding radius*
0 $2 $3 $4 $5 $6 $7 $8 $9 X,Y pos of 4 corners*
0 Add a 4 corners polygon primitive as box body*
4,1,4,$2,$3,$4,$5,$6,$7,$8,$9,$2,$3,0*
0 Add four circle primitives for the rounded corners*
1,1,$1+$1,$2,$3*
1,1,$1+$1,$4,$5*
1,1,$1+$1,$6,$7*
1,1,$1+$1,$8,$9*
0 Add four rect primitives between the rounded corners*
20,1,$1+$1,$2,$3,$4,$5,0*
20,1,$1+$1,$4,$5,$6,$7,0*
20,1,$1+$1,$6,$7,$8,$9,0*
20,1,$1+$1,$8,$9,$2,$3,0*%
G04 Aperture macros list end*
G04 #@! TA.AperFunction,SMDPad,CuDef*
%ADD10RoundRect,0.250000X-0.450000X0.262500X-0.450000X-0.262500X0.450000X-0.262500X0.450000X0.262500X0*%
G04 #@! TD*
G04 #@! TA.AperFunction,SMDPad,CuDef*
%ADD11R,1.700000X0.450000*%
G04 #@! TD*
G04 #@! TA.AperFunction,ComponentPad*
%ADD12O,2.000000X2.700000*%
G04 #@! TD*
G04 #@! TA.AperFunction,SMDPad,CuDef*
%ADD13RoundRect,0.250000X-0.650000X0.325000X-0.650000X-0.325000X0.650000X-0.325000X0.650000X0.325000X0*%
G04 #@! TD*
G04 #@! TA.AperFunction,SMDPad,CuDef*
%ADD14RoundRect,0.237500X-0.237500X0.300000X-0.237500X-0.300000X0.237500X-0.300000X0.237500X0.300000X0*%
G04 #@! TD*
G04 #@! TA.AperFunction,SMDPad,CuDef*
%ADD15RoundRect,0.150000X0.150000X-0.825000X0.150000X0.825000X-0.150000X0.825000X-0.150000X-0.825000X0*%
G04 #@! TD*
G04 #@! TA.AperFunction,SMDPad,CuDef*
%ADD16RoundRect,0.250000X0.650000X-0.325000X0.650000X0.325000X-0.650000X0.325000X-0.650000X-0.325000X0*%
G04 #@! TD*
G04 #@! TA.AperFunction,SMDPad,CuDef*
%ADD17RoundRect,0.237500X0.237500X-0.300000X0.237500X0.300000X-0.237500X0.300000X-0.237500X-0.300000X0*%
G04 #@! TD*
G04 #@! TA.AperFunction,SMDPad,CuDef*
%ADD18RoundRect,0.250000X0.625000X-0.375000X0.625000X0.375000X-0.625000X0.375000X-0.625000X-0.375000X0*%
G04 #@! TD*
G04 #@! TA.AperFunction,SMDPad,CuDef*
%ADD19RoundRect,0.250000X0.625000X-0.312500X0.625000X0.312500X-0.625000X0.312500X-0.625000X-0.312500X0*%
G04 #@! TD*
G04 #@! TA.AperFunction,SMDPad,CuDef*
%ADD20RoundRect,0.052000X-0.558000X-0.273000X0.558000X-0.273000X0.558000X0.273000X-0.558000X0.273000X0*%
G04 #@! TD*
G04 #@! TA.AperFunction,SMDPad,CuDef*
%ADD21RoundRect,0.052000X0.558000X0.273000X-0.558000X0.273000X-0.558000X-0.273000X0.558000X-0.273000X0*%
G04 #@! TD*
G04 #@! TA.AperFunction,ComponentPad*
%ADD22O,2.300000X1.700000*%
G04 #@! TD*
G04 #@! TA.AperFunction,ComponentPad*
%ADD23C,2.300000*%
G04 #@! TD*
G04 #@! TA.AperFunction,ComponentPad*
%ADD24O,2.200000X2.200000*%
G04 #@! TD*
G04 #@! TA.AperFunction,ComponentPad*
%ADD25R,2.200000X2.200000*%
G04 #@! TD*
G04 #@! TA.AperFunction,ComponentPad*
%ADD26O,1.700000X2.300000*%
G04 #@! TD*
G04 #@! TA.AperFunction,ViaPad*
%ADD27C,1.700000*%
G04 #@! TD*
G04 #@! TA.AperFunction,Conductor*
%ADD28C,0.600000*%
G04 #@! TD*
G04 #@! TA.AperFunction,Conductor*
%ADD29C,0.400000*%
G04 #@! TD*
G04 #@! TA.AperFunction,Conductor*
%ADD30C,0.800000*%
G04 #@! TD*
G04 APERTURE END LIST*
D10*
G04 #@! TO.P,R1,1*
G04 #@! TO.N,UPDI*
X34450000Y6812500D03*
G04 #@! TO.P,R1,2*
G04 #@! TO.N,Net-(D1-A)*
X34450000Y4987500D03*
G04 #@! TD*
D11*
G04 #@! TO.P,J2,1,VBUS*
G04 #@! TO.N,+5V*
X10749999Y13824999D03*
G04 #@! TO.P,J2,2,D-*
G04 #@! TO.N,USB_DATA_-*
X10749999Y13174999D03*
G04 #@! TO.P,J2,3,D+*
G04 #@! TO.N,USB_DATA_+*
X10749999Y12524999D03*
G04 #@! TO.P,J2,4,ID*
G04 #@! TO.N,unconnected-(J2-ID-Pad4)*
X10749999Y11874999D03*
G04 #@! TO.P,J2,5,GND*
G04 #@! TO.N,GND*
X10749999Y11224999D03*
D12*
G04 #@! TO.P,J2,6,Shield*
G04 #@! TO.N,unconnected-(J2-Shield-Pad6)*
X6799999Y16399999D03*
X10599999Y16249999D03*
X10599999Y8799999D03*
X6799999Y8649999D03*
G04 #@! TD*
D13*
G04 #@! TO.P,C4,1*
G04 #@! TO.N,+3.3V*
X23655000Y22585000D03*
G04 #@! TO.P,C4,2*
G04 #@! TO.N,GND*
X23655000Y19635000D03*
G04 #@! TD*
D14*
G04 #@! TO.P,C2,1*
G04 #@! TO.N,+3.3V*
X19550000Y6962500D03*
G04 #@! TO.P,C2,2*
G04 #@! TO.N,GND*
X19550000Y5237500D03*
G04 #@! TD*
D13*
G04 #@! TO.P,C5,1*
G04 #@! TO.N,Net-(U1-XO)*
X30600000Y14375000D03*
G04 #@! TO.P,C5,2*
G04 #@! TO.N,GND*
X30600000Y11425000D03*
G04 #@! TD*
D15*
G04 #@! TO.P,U1,16,VCC*
G04 #@! TO.N,VCC*
X14455000Y15525000D03*
G04 #@! TO.P,U1,15,R232*
G04 #@! TO.N,unconnected-(U1-R232-Pad15)*
X15725000Y15525000D03*
G04 #@! TO.P,U1,14,~{RTS}*
G04 #@! TO.N,unconnected-(U1-~{RTS}-Pad14)*
X16995000Y15525000D03*
G04 #@! TO.P,U1,13,~{DTR}*
G04 #@! TO.N,unconnected-(U1-~{DTR}-Pad13)*
X18265000Y15525000D03*
G04 #@! TO.P,U1,12,~{DCD}*
G04 #@! TO.N,unconnected-(U1-~{DCD}-Pad12)*
X19535000Y15525000D03*
G04 #@! TO.P,U1,11,~{RI}*
G04 #@! TO.N,unconnected-(U1-~{RI}-Pad11)*
X20805000Y15525000D03*
G04 #@! TO.P,U1,10,~{DSR}*
G04 #@! TO.N,unconnected-(U1-~{DSR}-Pad10)*
X22075000Y15525000D03*
G04 #@! TO.P,U1,9,~{CTS}*
G04 #@! TO.N,unconnected-(U1-~{CTS}-Pad9)*
X23345000Y15525000D03*
G04 #@! TO.P,U1,8,XO*
G04 #@! TO.N,Net-(U1-XO)*
X23345000Y10575000D03*
G04 #@! TO.P,U1,7,XI*
G04 #@! TO.N,Net-(U1-XI)*
X22075000Y10575000D03*
G04 #@! TO.P,U1,6,UD-*
G04 #@! TO.N,USB_DATA_-*
X20805000Y10575000D03*
G04 #@! TO.P,U1,5,UD+*
G04 #@! TO.N,USB_DATA_+*
X19535000Y10575000D03*
G04 #@! TO.P,U1,4,V3*
G04 #@! TO.N,+3.3V*
X18265000Y10575000D03*
G04 #@! TO.P,U1,3,RXD*
G04 #@! TO.N,Net-(D1-A)*
X16995000Y10575000D03*
G04 #@! TO.P,U1,2,TXD*
G04 #@! TO.N,Net-(D1-K)*
X15725000Y10575000D03*
G04 #@! TO.P,U1,1,GND*
G04 #@! TO.N,GND*
X14455000Y10575000D03*
G04 #@! TD*
D16*
G04 #@! TO.P,C6,1*
G04 #@! TO.N,Net-(U1-XI)*
X30600000Y6425000D03*
G04 #@! TO.P,C6,2*
G04 #@! TO.N,GND*
X30600000Y9375000D03*
G04 #@! TD*
D17*
G04 #@! TO.P,C1,1*
G04 #@! TO.N,VCC*
X11950000Y19037500D03*
G04 #@! TO.P,C1,2*
G04 #@! TO.N,GND*
X11950000Y20762500D03*
G04 #@! TD*
D16*
G04 #@! TO.P,C3,1*
G04 #@! TO.N,GND*
X15405000Y19385000D03*
G04 #@! TO.P,C3,2*
G04 #@! TO.N,+5V*
X15405000Y22335000D03*
G04 #@! TD*
D18*
G04 #@! TO.P,D2,1,K*
G04 #@! TO.N,GND*
X26405000Y19585000D03*
G04 #@! TO.P,D2,2,A*
G04 #@! TO.N,Net-(D2-A)*
X26405000Y22385000D03*
G04 #@! TD*
D19*
G04 #@! TO.P,R2,1*
G04 #@! TO.N,+3.3V*
X29155000Y19522500D03*
G04 #@! TO.P,R2,2*
G04 #@! TO.N,Net-(D2-A)*
X29155000Y22447500D03*
G04 #@! TD*
D20*
G04 #@! TO.P,U2,1,VIN*
G04 #@! TO.N,+5V*
X18160000Y21800000D03*
G04 #@! TO.P,U2,2,GND*
G04 #@! TO.N,GND*
X18160000Y20860000D03*
G04 #@! TO.P,U2,3,EN*
G04 #@! TO.N,+5V*
X18160000Y19920000D03*
D21*
G04 #@! TO.P,U2,4*
G04 #@! TO.N,N/C*
X20650000Y19920000D03*
G04 #@! TO.P,U2,5,VOUT*
G04 #@! TO.N,+3.3V*
X20650000Y21800000D03*
G04 #@! TD*
D22*
G04 #@! TO.P,J1,1,Pin_1*
G04 #@! TO.N,UPDI*
X34349999Y9874999D03*
G04 #@! TO.P,J1,2,Pin_2*
G04 #@! TO.N,GND*
X34349999Y12414999D03*
G04 #@! TO.P,J1,3,Pin_3*
G04 #@! TO.N,VCC*
X34349999Y14954999D03*
G04 #@! TD*
D23*
G04 #@! TO.P,Y1,1,1*
G04 #@! TO.N,Net-(U1-XI)*
X27350000Y8250000D03*
G04 #@! TO.P,Y1,2,2*
G04 #@! TO.N,Net-(U1-XO)*
X27350000Y13130000D03*
G04 #@! TD*
D24*
G04 #@! TO.P,D1,2,A*
G04 #@! TO.N,Net-(D1-A)*
X16359999Y3799999D03*
D25*
G04 #@! TO.P,D1,1,K*
G04 #@! TO.N,Net-(D1-K)*
X8739999Y3799999D03*
G04 #@! TD*
D26*
G04 #@! TO.P,SW1,1,A*
G04 #@! TO.N,+3.3V*
X21904999Y24984999D03*
G04 #@! TO.P,SW1,2,B*
G04 #@! TO.N,VCC*
X19404999Y24984999D03*
G04 #@! TO.P,SW1,3,C*
G04 #@! TO.N,+5V*
X16904999Y24984999D03*
G04 #@! TD*
D27*
G04 #@! TO.N,GND*
X30650000Y4000000D03*
X11550000Y23000000D03*
G04 #@! TO.N,+3.3V*
X27750000Y24800000D03*
X22750000Y6700000D03*
G04 #@! TD*
D28*
G04 #@! TO.N,unconnected-(J2-Shield-Pad6)*
X6800000Y8650000D02*
X10450000Y8650000D01*
X10450000Y8650000D02*
X10600000Y8800000D01*
G04 #@! TO.N,VCC*
X19405000Y24985000D02*
X19405000Y26555000D01*
X32905000Y26345000D02*
X32905000Y18735000D01*
X19405000Y26555000D02*
X19950000Y27100000D01*
X19950000Y27100000D02*
X32150000Y27100000D01*
X32150000Y27100000D02*
X32905000Y26345000D01*
X32905000Y18735000D02*
X31682500Y17512500D01*
X31682500Y17512500D02*
X14192500Y17512500D01*
G04 #@! TO.N,Net-(D1-A)*
X34450000Y4987500D02*
X34450000Y4600000D01*
X34450000Y4600000D02*
X32350000Y2500000D01*
G04 #@! TO.N,UPDI*
X34450000Y6812500D02*
X34450000Y9775000D01*
X34450000Y9775000D02*
X34350000Y9875000D01*
D29*
G04 #@! TO.N,GND*
X30600000Y10500000D02*
X32350000Y10500000D01*
X32350000Y10500000D02*
X32450000Y10400000D01*
D28*
X30600000Y10500000D02*
X30600000Y11425000D01*
X30600000Y9375000D02*
X30600000Y10500000D01*
X32450000Y10400000D02*
X32450000Y9300000D01*
X32450000Y11400000D02*
X32450000Y10400000D01*
X32450000Y9300000D02*
X32450000Y4800000D01*
X32450000Y12350000D02*
X32450000Y11400000D01*
X34350000Y12415000D02*
X32515000Y12415000D01*
X32515000Y12415000D02*
X32450000Y12350000D01*
X31650000Y4000000D02*
X30650000Y4000000D01*
X32450000Y4800000D02*
X31650000Y4000000D01*
G04 #@! TO.N,+3.3V*
X19550000Y6962500D02*
X22487500Y6962500D01*
X22487500Y6962500D02*
X22750000Y6700000D01*
G04 #@! TO.N,GND*
X36850000Y10900000D02*
X36850000Y11700000D01*
X36850000Y11700000D02*
X36135000Y12415000D01*
X36135000Y12415000D02*
X34350000Y12415000D01*
X34050000Y1400000D02*
X36850000Y4200000D01*
X36850000Y4200000D02*
X36850000Y10900000D01*
X6650000Y1600000D02*
X6850000Y1400000D01*
X6850000Y1400000D02*
X34050000Y1400000D01*
X12150000Y5900000D02*
X6350000Y5900000D01*
X6350000Y5900000D02*
X6350000Y1900000D01*
X6350000Y1900000D02*
X6650000Y1600000D01*
G04 #@! TO.N,Net-(D1-A)*
X22350000Y2500000D02*
X32350000Y2500000D01*
X32350000Y2500000D02*
X34825000Y4975000D01*
X16360000Y3800000D02*
X17350000Y3800000D01*
X17950000Y3200000D02*
X21650000Y3200000D01*
X21650000Y3200000D02*
X22350000Y2500000D01*
X17350000Y3800000D02*
X17950000Y3200000D01*
G04 #@! TO.N,GND*
X23100000Y3850000D02*
X30500000Y3850000D01*
X30500000Y3850000D02*
X30650000Y4000000D01*
X19550000Y5237500D02*
X21712500Y5237500D01*
X21712500Y5237500D02*
X23100000Y3850000D01*
G04 #@! TO.N,Net-(U1-XI)*
X28325000Y6425000D02*
X30600000Y6425000D01*
X27350000Y8250000D02*
X27350000Y7400000D01*
X27350000Y7400000D02*
X28325000Y6425000D01*
G04 #@! TO.N,Net-(U1-XO)*
X28750000Y14375000D02*
X30600000Y14375000D01*
X27350000Y13130000D02*
X28595000Y14375000D01*
X28595000Y14375000D02*
X28750000Y14375000D01*
G04 #@! TO.N,VCC*
X31792500Y17512500D02*
X34350000Y14955000D01*
G04 #@! TO.N,GND*
X11950000Y20762500D02*
X14027500Y20762500D01*
X14027500Y20762500D02*
X15405000Y19385000D01*
X11550000Y23000000D02*
X11550000Y21162500D01*
X11550000Y21162500D02*
X11950000Y20762500D01*
G04 #@! TO.N,VCC*
X14192500Y17512500D02*
X13827500Y17877500D01*
X13827500Y17877500D02*
X12840000Y18865000D01*
X12667500Y19037500D02*
X13827500Y17877500D01*
X11950000Y19037500D02*
X12667500Y19037500D01*
D30*
G04 #@! TO.N,+3.3V*
X31405000Y19735000D02*
X31405000Y24400000D01*
X27750000Y24800000D02*
X31005000Y24800000D01*
X31005000Y24800000D02*
X31405000Y24400000D01*
X21905000Y24985000D02*
X25450000Y24985000D01*
X25450000Y24985000D02*
X27565000Y24985000D01*
X27565000Y24985000D02*
X27750000Y24800000D01*
D29*
G04 #@! TO.N,VCC*
X14127500Y17577500D02*
X14455000Y17250000D01*
X31350000Y17512500D02*
X14192500Y17512500D01*
X14455000Y15525000D02*
X14455000Y17250000D01*
X14192500Y17512500D02*
X14127500Y17577500D01*
G04 #@! TO.N,GND*
X16305000Y18485000D02*
X22505000Y18485000D01*
X14455000Y9405000D02*
X14455000Y10575000D01*
X16880000Y20860000D02*
X15405000Y19385000D01*
D30*
X23705000Y19585000D02*
X23655000Y19635000D01*
D29*
X12350000Y6100000D02*
X12350000Y7300000D01*
X13805000Y11225000D02*
X14455000Y10575000D01*
D30*
X26405000Y19585000D02*
X23705000Y19585000D01*
D29*
X15405000Y19385000D02*
X16305000Y18485000D01*
X22505000Y18485000D02*
X23655000Y19635000D01*
X18160000Y20860000D02*
X16880000Y20860000D01*
X12150000Y5900000D02*
X12350000Y6100000D01*
X12350000Y7300000D02*
X14455000Y9405000D01*
X10750000Y11225000D02*
X13805000Y11225000D01*
G04 #@! TO.N,+3.3V*
X18265000Y8247500D02*
X19550000Y6962500D01*
D30*
X23655000Y23235000D02*
X21905000Y24985000D01*
D28*
X22630000Y22585000D02*
X23655000Y22585000D01*
D30*
X29155000Y19522500D02*
X31192500Y19522500D01*
D28*
X21845000Y21800000D02*
X22630000Y22585000D01*
D30*
X31192500Y19522500D02*
X31405000Y19735000D01*
D28*
X20650000Y21800000D02*
X21845000Y21800000D01*
D30*
X23655000Y22585000D02*
X23655000Y23235000D01*
D29*
X18265000Y10575000D02*
X18265000Y8247500D01*
G04 #@! TO.N,+5V*
X19405000Y19860000D02*
X18220000Y19860000D01*
D28*
X17625000Y22335000D02*
X18160000Y21800000D01*
D29*
X8750000Y14250000D02*
X8750000Y18750000D01*
D30*
X9350000Y25100000D02*
X13835000Y25100000D01*
X8750000Y24500000D02*
X9350000Y25100000D01*
D29*
X18220000Y19860000D02*
X18160000Y19920000D01*
D28*
X15405000Y22335000D02*
X17625000Y22335000D01*
D29*
X19215000Y21800000D02*
X19405000Y21610000D01*
X9175000Y13825000D02*
X8750000Y14250000D01*
D30*
X8750000Y18750000D02*
X8750000Y24500000D01*
X16905000Y24985000D02*
X15405000Y24985000D01*
X15155000Y24735000D02*
X15155000Y22585000D01*
X13835000Y25100000D02*
X13950000Y24985000D01*
D29*
X10750000Y13825000D02*
X9175000Y13825000D01*
X19405000Y21610000D02*
X19405000Y19860000D01*
X18160000Y21800000D02*
X19215000Y21800000D01*
D30*
X15405000Y24985000D02*
X15155000Y24735000D01*
X13950000Y24985000D02*
X16905000Y24985000D01*
X15155000Y22585000D02*
X15405000Y22335000D01*
D29*
G04 #@! TO.N,Net-(U1-XO)*
X24380000Y13130000D02*
X23350000Y12100000D01*
X23350000Y10580000D02*
X23345000Y10575000D01*
X23350000Y12100000D02*
X23350000Y10580000D01*
X27350000Y13130000D02*
X24380000Y13130000D01*
G04 #@! TO.N,Net-(U1-XI)*
X22900000Y8250000D02*
X27350000Y8250000D01*
X22075000Y9075000D02*
X22900000Y8250000D01*
X22075000Y10575000D02*
X22075000Y9075000D01*
G04 #@! TO.N,Net-(D1-K)*
X8740000Y3800000D02*
X12850000Y3800000D01*
X13750000Y7200000D02*
X15725000Y9175000D01*
X15725000Y9175000D02*
X15725000Y10575000D01*
X13750000Y4700000D02*
X13750000Y7200000D01*
X12850000Y3800000D02*
X13750000Y4700000D01*
G04 #@! TO.N,Net-(D1-A)*
X16360000Y3800000D02*
X14750000Y5410000D01*
X14750000Y6800000D02*
X16995000Y9045000D01*
X14750000Y5410000D02*
X14750000Y6800000D01*
X16995000Y9045000D02*
X16995000Y10575000D01*
D30*
G04 #@! TO.N,Net-(D2-A)*
X29092500Y22385000D02*
X29155000Y22447500D01*
X26405000Y22385000D02*
X29092500Y22385000D01*
D29*
G04 #@! TO.N,UPDI*
X34350000Y7400000D02*
X34350000Y9875000D01*
X34950000Y6800000D02*
X34350000Y7400000D01*
G04 #@! TO.N,USB_DATA_-*
X20805000Y12043528D02*
X19673528Y13175000D01*
X20805000Y10575000D02*
X20805000Y12043528D01*
X19673528Y13175000D02*
X10750000Y13175000D01*
G04 #@! TO.N,USB_DATA_+*
X10750000Y12525000D02*
X18250000Y12525000D01*
X19500000Y12250000D02*
X19500000Y10610000D01*
X18250000Y12525000D02*
X19225000Y12525000D01*
X19225000Y12525000D02*
X19500000Y12250000D01*
X19500000Y10610000D02*
X19535000Y10575000D01*
G04 #@! TD*
M02*
